Place,Sex,Name,Event,Division,WeightClassKg,Equipment,BirthYear,State,BodyweightKg,Squat1Kg,Squat2Kg,Squat3Kg,Best3SquatKg,Bench1Kg,Bench2Kg,Bench3Kg,Best3BenchKg,Deadlift1Kg,Deadlift2Kg,Deadlift3Kg,Best3DeadliftKg,TotalKg
1,M,Chris Greene,B,MR-O,105,Raw,1980,CA,102.74,,,,,205,215,-225,215,,,,,215
1,M,Chris Greene,D,MR-O,105,Raw,1980,CA,102.74,,,,,,,,,247.5,255,262.5,262.5,262.5
1,F,Mackenzie Hobby,SBD,FR-Jr,57,Raw,1993,CA,54.45,60,-65,-65,60,45,47.5,-50,47.5,80,87.5,92.5,92.5,200
1,F,Mary Clark,SBD,FR-Jr,63,Raw,1994,CA,61.74,112.5,120,125,125,72.5,77.5,-80,77.5,135,147.5,155,155,357.5
2,F,Brenna Patterson,SBD,FR-Jr,63,Raw,1995,CA,61.52,120,127.5,-135,127.5,65,67.5,-72.5,67.5,147.5,152.5,160,160,355
3,F,Abigail Looi,SBD,FR-Jr,63,Raw,1995,CA,62.17,122.5,130,132.5,132.5,55,60,-65,60,140,150,155,155,347.5
4,F,Amanda Bucci,SBD,FR-Jr,63,Raw,1993,CA,60.52,95,102.5,-110,102.5,45,50,55,55,95,102.5,115,115,272.5
1,F,Kati Terray,SBD,FR-M1a,52,Raw,1976,CA,48,55,60,70,70,30,35,40,40,85,92.5,-97.5,92.5,202.5
1,F,Jenn David,SBD,FR-M1a,63,Raw,1974,CA,62.49,95,105,-115,105,52.5,57.5,-60,57.5,120,130,132.5,132.5,295
1,F,Leila Ricci,SBD,FR-M1b,84,Raw,1971,CA,82.39,95,-100,100,100,47.5,-52.5,52.5,52.5,105,110,120,120,272.5
1,F,Katrina Lopez,SBD,FR-O,52,Raw,1990,CA,50.38,87.5,92.5,97.5,97.5,47.5,52.5,-55,52.5,137.5,145,-150,145,295
2,F,Jennifer Ciofolo,SBD,FR-O,52,Raw,1987,CA,51.83,87.5,95,100,100,42.5,45,-50,45,120,125,-130,125,270
1,F,Alicia Vallejos,SBD,FR-O,57,Raw,1988,CA,55.88,67.5,72.5,75,75,32.5,35,-40,35,92.5,-100,100,100,210
1,F,Nanette Jarenwattananon,SBD,FR-O,63,Raw,1985,CA,61.09,107.5,112.5,115,115,50,52.5,55,55,130,142.5,155,155,325
2,F,Eve Shieh,SBD,FR-O,63,Raw,1990,CA,60.73,102.5,107.5,110,110,52.5,57.5,60,60,120,-130,130,130,300
3,F,Julianne Russell,SBD,FR-O,63,Raw,1984,CA,62.98,97.5,102.5,107.5,107.5,45,50,-55,50,137.5,-147.5,-147.5,137.5,295
4,F,Arielle Miller,SBD,FR-O,63,Raw,1982,CA,62.17,65,75,87.5,87.5,50,55,57.5,57.5,-90,100,110,110,255
1,F,Julie Brookfield,SBD,FR-O,72,Raw,1993,CA,71.53,140,147.5,155,155,82.5,87.5,-90,87.5,177.5,187.5,-192.5,187.5,430
2,F,Brenna Bulach,SBD,FR-O,72,Raw,1983,CA,69.45,140,150,155,155,70,75,-80,75,155,167.5,175,175,405
3,F,Josie D'Aquanno,SBD,FR-O,72,Raw,1977,CA,70.1,127.5,132.5,137.5,137.5,67.5,-70,70,70,152.5,165,175,175,382.5
4,F,Vrenely Garcia,SBD,FR-O,72,Raw,1984,CA,69.5,120,125,-132.5,125,40,42.5,47.5,47.5,147.5,155,162.5,162.5,335
5,F,Andrea Horowitt,SBD,FR-O,72,Raw,1984,CA,71.44,115,-120,-120,115,70,-72.5,-72.5,70,142.5,150,-155,150,335
6,F,Kris Gonzalez,SBD,FR-O,72,Raw,1982,CA,70.14,100,120,140,140,45,52.5,-62.5,52.5,100,120,140,140,332.5
7,F,Madeline Martinez,SBD,FR-O,72,Raw,1988,CA,71.53,102.5,120,122.5,122.5,-67.5,67.5,-75,67.5,92.5,110,132.5,132.5,322.5
1,F,Brenda Ahearn,SBD,FR-O,84,Raw,1984,CA,75.6,-102.5,102.5,110,110,60,65,70,70,145,152.5,162.5,162.5,342.5
2,F,Maile Earnest,SBD,FR-O,84,Raw,1980,CA,79.21,120,127.5,132.5,132.5,-55,60,-62.5,60,130,137.5,142.5,142.5,335
3,F,Christen Diaz,SBD,FR-O,84,Raw,1983,CA,82.77,112.5,117.5,-122.5,117.5,55,57.5,60,60,137.5,142.5,147.5,147.5,325
4,F,Cassi Gill,SBD,FR-O,84,Raw,1983,CA,80.37,-115,115,-120,115,47.5,50,52.5,52.5,135,145,152.5,152.5,320
5,F,Morgan Linsley,SBD,FR-O,84,Raw,1978,CA,80.05,97.5,100,107.5,107.5,45,47.5,-52.5,47.5,115,117.5,122.5,122.5,277.5
1,F,Tania Santiago-Greathouse,SBD,FR-O,84+,Raw,1986,CA,86.04,-115,117.5,120,120,55,-57.5,-57.5,55,125,127.5,130,130,305
1,F,Emily Blue-Diaz,SBD,FR-T1,84,Raw,2001,CA,81.67,102.5,110,-117.5,110,42.5,45,47.5,47.5,-115,115,-137.5,115,272.5
1,F,Lisa Tai,SBD,FR-T3,84,Raw,1998,CA,74.59,102.5,107.5,115,115,45,50,-55,50,-142.5,147.5,150,150,315
2,F,Kara Phillips,SBD,FR-T3,84,Raw,1997,CA,73.21,102.5,107.5,115,115,55,60,-62.5,60,107.5,112.5,120,120,295
1,M,Lester Philip Nolasco,SBD,MR-Jr,53,Raw,1994,CA,51.3,105,110,115,115,67.5,72.5,75,75,132.5,140,147.5,147.5,337.5
1,M,Rodrigo Manzo,SBD,MR-Jr,66,Raw,1993,CA,65.58,200,212.5,,212.5,137.5,145,,145,255,267.5,277.5,277.5,635
2,M,Kevin Nguyen #3,SBD,MR-Jr,66,Raw,1994,CA,64.62,180,192.5,-200,192.5,102.5,107.5,115,115,180,-187.5,187.5,187.5,495
1,M,Kevin Tran,SBD,MR-Jr,74,Raw,1995,CA,73,165,175,182.5,182.5,105,110,115,115,190,197.5,-205,197.5,495
2,M,Dennis Wu,SBD,MR-Jr,74,Raw,1996,CA,72.5,165,175,190,190,-102.5,-107.5,107.5,107.5,165,175,185,185,482.5
DQ,M,James Wang,SBD,MR-Jr,74,Raw,1990,CA,71.78,175,-180,,175,-92.5,,,,,,,,
1,M,Luis Ortuno,SBD,MR-Jr,83,Raw,1996,CA,78.11,227.5,235,240,240,142.5,150,160,160,260,272.5,285,285,685
2,M,Jimmy Villanueva,SBD,MR-Jr,83,Raw,1995,CA,82,215,225,230,230,155,162.5,-167.5,162.5,265,275,-282.5,275,667.5
3,M,David Guerrero-Sanchez,SBD,MR-Jr,83,Raw,1996,CA,81.53,190,197.5,-205,197.5,87.5,95,-102.5,95,215,230,237.5,237.5,530
4,M,Alex Gaynor,SBD,MR-Jr,83,Raw,1996,CA,80.09,185,197.5,-210,197.5,105,125,-137.5,125,185,200,-205,200,522.5
5,M,Ryan Waas,SBD,MR-Jr,83,Raw,1994,CA,77.58,155,165,-172.5,165,102.5,110,-112.5,110,195,205,207.5,207.5,482.5
1,M,Ryan Finn,SBD,MR-Jr,93,Raw,1993,CA,92.2,230,245,255,255,140,147.5,-155,147.5,230,-245,-245,230,632.5
2,M,Ronald Siu,SBD,MR-Jr,93,Raw,1994,CA,92.74,200,207.5,217.5,217.5,-110,110,115,115,240,255,-262.5,255,587.5
3,M,Ryan Machado,SBD,MR-Jr,93,Raw,1994,CA,89.45,167.5,182.5,192.5,192.5,105,107.5,112.5,112.5,210,222.5,230,230,535
4,M,Kevin Ho,SBD,MR-Jr,93,Raw,1996,CA,90.42,150,165,175,175,110,120,122.5,122.5,185,200,210,210,507.5
1,M,Austin Osiecki,SBD,MR-Jr,120+,Raw,1996,CA,127.26,227.5,240,-247.5,240,140,-147.5,147.5,147.5,247.5,262.5,272.5,272.5,660
1,M,Ron Brinker,SBD,MR-M1a,66,Raw,1975,OH,61.1,140,150,155,155,85,90,95,95,160,170,177.5,177.5,427.5
1,M,Caleb Terray,SBD,MR-M1a,74,Raw,1974,CA,70.38,127.5,137.5,-150,137.5,-87.5,92.5,95,95,175,187.5,200,200,432.5
1,M,Lance Hild,SBD,MR-M1a,105,Raw,1975,CA,102.76,205,227.5,-252.5,227.5,142.5,155,-165,155,252.5,275,282.5,282.5,665
1,M,Chris Dornbush,SBD,MR-M1b,93,Raw,1970,CA,86.36,-125,132.5,140,140,85,90,100,100,150,165,182.5,182.5,422.5
1,M,Steve Heyl,SBD,MR-M2b,105,Raw,1960,CA,94.62,152.5,-165,-165,152.5,87.5,97.5,-102.5,97.5,165,177.5,-185,177.5,427.5
DD,M,Gary Thorp,SBD,MR-M3a,83,Raw,1956,CA,80,85,-100,105,105,-135,142.5,-147.5,142.5,125,145,165,165,
1,M,Seth Newberry,SBD,MR-M3a,120,Raw,1956,CA,113.23,-125,140,145,145,105,-112.5,-112.5,105,130,140,-147.5,140,390
1,M,Lester Philip Nolasco,SBD,MR-O,59,Raw,1994,CA,51.3,105,110,115,115,67.5,72.5,75,75,132.5,140,147.5,147.5,337.5
1,M,David Dinh,SBD,MR-O,66,Raw,1990,CA,65.85,170,180,190,190,117.5,125,-127.5,125,-227.5,227.5,-247.5,227.5,542.5
2,M,Kevin Nguyen #3,SBD,MR-O,66,Raw,1994,CA,64.62,180,192.5,-200,192.5,102.5,107.5,115,115,180,-187.5,187.5,187.5,495
3,M,Christopher Aceves,SBD,MR-O,66,Raw,1992,CA,65.35,155,-162.5,165,165,95,-102.5,-102.5,95,180,190,205,205,465
4,M,Nicholas Lawry,SBD,MR-O,66,Raw,1977,CA,63.58,-127.5,127.5,140,140,115,117.5,-120,117.5,175,185,190,190,447.5
1,M,Andy Naiyanet,SBD,MR-O,74,Raw,1992,CA,72.54,172.5,182.5,192.5,192.5,152.5,162.5,-167.5,162.5,220,235,247.5,247.5,602.5
2,M,Kevin Yang,SBD,MR-O,74,Raw,1991,CA,70.47,152.5,157.5,160,160,137.5,142.5,147.5,147.5,185,187.5,192.5,192.5,500
3,M,Anthony Ho,SBD,MR-O,74,Raw,1990,CA,71.66,125,142.5,152.5,152.5,85,102.5,-107.5,102.5,167.5,185,-195,185,440
4,M,Jacob Reynoso,SBD,MR-O,74,Raw,1997,CA,72.14,137.5,145,155,155,100,110,-117.5,110,145,-155,155,155,420
DQ,M,Ben Carlton,SBD,MR-O,74,Raw,1988,CA,72.64,-187.5,-187.5,-187.5,,-130,,,,250,,,250,
DQ,M,Robert Santana,SBD,MR-O,74,Raw,1984,CA,72.75,155,-167.5,-167.5,155,115,-120,-120,115,-202.5,-202.5,,,
1,M,Jimmy Villanueva,SBD,MR-O,83,Raw,1995,CA,82,215,225,230,230,155,162.5,-167.5,162.5,265,275,-282.5,275,667.5
2,M,Peter Le,SBD,MR-O,83,Raw,1982,CA,81.52,190,-200,200,200,162.5,172.5,-182.5,172.5,235,247.5,270,270,642.5
3,M,Ryan Belsito,SBD,MR-O,83,Raw,1993,CA,78.26,170,180,-185,180,115,120,-125,120,200,210,215,215,515
4,M,Kyle Le,SBD,MR-O,83,Raw,1993,CA,79.13,137.5,142.5,170,170,-115,122.5,130,130,175,192.5,215,215,515
5,M,John Dlugosz,SBD,MR-O,83,Raw,1991,CA,80.32,167.5,180,-190,180,102.5,112.5,-122.5,112.5,205,217.5,-230,217.5,510
6,M,Gustavo Castro,SBD,MR-O,83,Raw,1986,CA,81.05,152.5,157.5,162.5,162.5,-117.5,122.5,130,130,170,180,190,190,482.5
7,M,Shao Xiong,SBD,MR-O,83,Raw,1990,CA,79.26,155,165,170,170,100,107.5,-112.5,107.5,190,197.5,202.5,202.5,480
8,M,Trevor Viboch,SBD,MR-O,83,Raw,1988,CA,81.82,165,172.5,177.5,177.5,92.5,97.5,100,100,182.5,190,197.5,197.5,475
9,M,Raymond Burlaza,SBD,MR-O,83,Raw,1988,CA,75.62,-150,150,160,160,105,107.5,110,110,175,185,195,195,465
10,M,Jeff Smouse,SBD,MR-O,83,Raw,1992,CA,74.51,145,160,-165,160,92.5,-100,-105,92.5,175,190,200,200,452.5
11,M,Alexander Grover,SBD,MR-O,83,Raw,1993,CA,79.67,145,155,160,160,100,-107.5,-107.5,100,165,175,185,185,445
1,M,Kristopher Hunt,SBD,MR-O,93,Raw,1982,CA,92.16,265,280,-295,280,152.5,162.5,-170,162.5,262.5,277.5,292.5,292.5,735
2,M,Ryan Finn,SBD,MR-O,93,Raw,1993,CA,92.2,230,245,255,255,140,147.5,-155,147.5,230,-245,-245,230,632.5
3,M,Brandon Mikulecky,SBD,MR-O,93,Raw,1991,CA,91.69,215,227.5,237.5,237.5,145,-152.5,-152.5,145,235,245,-252.5,245,627.5
4,M,Achidi Ndiforchu,SBD,MR-O,93,Raw,1984,CA,84.99,190,-200,205,205,115,-130,-130,115,220,240,255,255,575
5,M,Dane Roach,SBD,MR-O,93,Raw,1991,CA,88.35,175,185,195,195,127.5,132.5,137.5,137.5,215,225,235,235,567.5
6,M,Cheng Xiong,SBD,MR-O,93,Raw,1991,CA,90.23,210,220,230,230,125,145,150,150,180,,,180,560
7,M,Anthony Ruiz,SBD,MR-O,93,Raw,1990,CA,91.04,145,175,177.5,177.5,135,147.5,-152.5,147.5,182.5,192.5,205,205,530
8,M,Stanley Frencher Jr,SBD,MR-O,93,Raw,1979,CA,91.9,142.5,147.5,-155,147.5,135,142.5,-150,142.5,207.5,217.5,232.5,232.5,522.5
9,M,Ya-Ju Lee,SBD,MR-O,93,Raw,1995,CA,88.61,180,187.5,-195,187.5,-105,117.5,-122.5,117.5,180,195,205,205,510
10,M,Mike Shea,SBD,MR-O,93,Raw,1984,CA,92.21,177.5,187.5,197.5,197.5,107.5,-112.5,-112.5,107.5,190,205,-210,205,510
11,M,Keith Brokaw,SBD,MR-O,93,Raw,1986,CA,86.54,147.5,157.5,165,165,105,-110,-110,105,195,200,-205,200,470
12,M,Wayne Jessen,SBD,MR-O,93,Raw,1985,CA,90.93,125,132.5,140,140,92.5,102.5,107.5,107.5,137.5,147.5,157.5,157.5,405
DQ,M,Victor Wong,SBD,MR-O,93,Raw,1995,CA,89.16,157.5,160,-162.5,160,-117.5,-117.5,-117.5,,200,-202.5,-202.5,200,
1,M,Joshua Earnest,SBD,MR-O,105,Raw,1981,CA,103.1,247.5,265,275,275,167.5,177.5,182.5,182.5,252.5,270,280,280,737.5
2,M,Jason Loewy,SBD,MR-O,105,Raw,1989,CA,99.91,225,237.5,250,250,147.5,155,160,160,250,265,275,275,685
3,M,Lance Hild,SBD,MR-O,105,Raw,1975,CA,102.76,205,227.5,-252.5,227.5,142.5,155,-165,155,252.5,275,282.5,282.5,665
4,M,Dan Gallagher,SBD,MR-O,105,Raw,1991,CA,96.26,190,200,210,210,137.5,145,-147.5,145,240,260,-272.5,260,615
5,M,Dominick Louda,SBD,MR-O,105,Raw,1991,CA,102.41,200,212.5,,212.5,135,140,142.5,142.5,220,235,-245,235,590
6,M,Dylan Carpintero,SBD,MR-O,105,Raw,1996,CA,99.23,210,-217.5,-227.5,210,140,145,150,150,215,227.5,-240,227.5,587.5
7,M,Brandon Littlefield,SBD,MR-O,105,Raw,1977,CA,98.31,200,212.5,217.5,217.5,155,165,-167.5,165,175,185,190,190,572.5
8,M,Nathaniel Margolis,SBD,MR-O,105,Raw,1992,CA,94.36,142.5,165,182.5,182.5,135,142.5,145,145,222.5,235,-250,235,562.5
9,M,Johann Cho,SBD,MR-O,105,Raw,1985,CA,94.95,152.5,167.5,180,180,97.5,107.5,112.5,112.5,175,195,207.5,207.5,500
1,M,Robert Ixta,SBD,MR-O,120,Raw,1992,CA,108.48,235,247.5,260,260,135,142.5,155,155,237.5,252.5,267.5,267.5,682.5
2,M,Kyle Gonzales,SBD,MR-O,120,Raw,1991,CA,118.73,152.5,157.5,165,165,112.5,117.5,120,120,190,202.5,-210,202.5,487.5
1,M,Levi Lehman,SBD,MR-O,120+,Raw,1988,CA,124.97,167.5,182.5,-192.5,182.5,145,157.5,-165,157.5,205,227.5,237.5,237.5,577.5
1,M,Brian Menda,SBD,MR-T2,74,Raw,1999,CA,71.7,177.5,187.5,195,195,105,-110,-110,105,215,227.5,-235,227.5,527.5
2,M,Kianoush Kermani,SBD,MR-T2,74,Raw,1999,CA,72.12,145,155,162.5,162.5,105,110,112.5,112.5,162.5,172.5,182.5,182.5,457.5
1,M,Willie Haller,SBD,MR-T2,120,Raw,2000,CA,105.75,142.5,157.5,160,160,112.5,120,122.5,122.5,182.5,200,207.5,207.5,490
1,M,Brian Raymond,SBD,MR-T3,59,Raw,1998,CA,56.69,110,-115,-122.5,110,72.5,-75,,72.5,152.5,165,167.5,167.5,350
1,M,Christopher Kalafatis,SBD,MR-T3,74,Raw,1993,CA,71.88,130,142.5,157.5,157.5,90,92.5,100,100,142.5,157.5,177.5,177.5,435
2,M,Vidal Arroyo,SBD,MR-T3,74,Raw,1997,CA,71.33,130,137.5,147.5,147.5,82.5,90,100,100,155,165,182.5,182.5,430
1,M,Andrew Elraheb,SBD,MR-Y3,66,Raw,2005,CA,63.22,52.5,60,67.5,67.5,22.5,27.5,32.5,32.5,60,72.5,80,80,180
1,M,John Cutrone,SBD,MR-Y3,74,Raw,2003,CA,70.99,102.5,110,120,120,-65,65,70,70,110,127.5,140,140,330
1,M,Joseph Lipanovich,BD,MR-O,83,Raw,1982,CA,79.82,,,,,-132.5,132.5,-140,132.5,182.5,200,-205,200,332.5
