Place,Name,Sex,Event,Division,WeightClassKg,Equipment,BirthYear,Team,State,BodyweightKg,Squat1Kg,Squat2Kg,Squat3Kg,Best3SquatKg,Bench1Kg,Bench2Kg,Bench3Kg,Best3BenchKg,Deadlift1Kg,Deadlift2Kg,Deadlift3Kg,Best3DeadliftKg,TotalKg
1,Jami Huang,F,SBD,FR-HS,63,Raw,2000,,MA,60.7,82.5,92.5,102.5,102.5,40,45,50,50,-97.5,107.5,117.5,117.5,270
2,Lucia Vilallonga,F,SBD,FR-HS,63,Raw,2000,,MA,60.9,60,-67.5,-72.5,60,32.5,37.5,-40,37.5,72.5,-82.5,82.5,82.5,180
1,Rachel Odell,F,SBD,FR-HS,72,Raw,2000,,NY,64.1,87.5,92.5,95,95,35,37.5,40,40,92.5,100,105,105,240
1,Engracia Scheller,F,SBD,FR-HS,84,Raw,2004,,MA,76,57.5,62.5,67.5,67.5,37.5,-42.5,-47.5,37.5,70,82.5,95,95,200
1,Wei Zhang,M,SBD,MR-HS,59,Raw,2000,,MA,49.8,102.5,110,-115,110,45,50,-55,50,-112.5,117.5,127.5,127.5,287.5
2,Matthew Czaja,M,SBD,MR-HS,59,Raw,2003,Saint John's High School,MA,58.9,52.5,65,67.5,67.5,40,45,47.5,47.5,67.5,85,102.5,102.5,217.5
3,Christopher Hendley,M,SBD,MR-HS,59,Raw,2003,Saint John's High School,MA,56.6,57.5,-62.5,65,65,40,45,-47.5,45,62.5,72.5,82.5,82.5,192.5
4,Noah Long,M,SBD,MR-HS,59,Raw,2002,Saint John's High School,MA,56.3,52.5,-57.5,62.5,62.5,40,42.5,45,45,60,67.5,75,75,182.5
5,Will Evans,M,SBD,MR-HS,59,Raw,2003,Saint John's High School,MA,41.2,52.5,57.5,60,60,-35,35,-37.5,35,67.5,75,82.5,82.5,177.5
1,Alex Yu,M,SBD,MR-HS,66,Raw,2000,,MA,61.9,127.5,135,140,140,60,65,-67.5,65,145,152.5,157.5,157.5,362.5
2,Anthony Hirst,M,SBD,MR-HS,66,Raw,2001,Saint John's High School,MA,59.5,120,130,135,135,70,72.5,75,75,120,130,-135,130,340
3,Gino Serra,M,SBD,MR-HS,66,Raw,2000,Saint John's High School,MA,62.3,92.5,100,105,105,75,77.5,-80,77.5,132.5,142.5,150,150,332.5
4,Ben Lawson,M,SBD,MR-HS,66,Raw,2002,Saint John's High School,MA,62.2,102.5,110,115,115,62.5,65,-67.5,65,120,130,137.5,137.5,317.5
1,Tristan Scheller,M,SBD,MR-HS,74,Raw,2000,,MA,71.4,145,150,157.5,157.5,92.5,100,105,105,175,185,-192.5,185,447.5
2,Benjamin Carr,M,SBD,MR-HS,74,Raw,1999,Saint John's High School,MA,72.9,125,-132.5,135,135,90,92.5,-95,92.5,165,180,190,190,417.5
3,Perry Chao,M,SBD,MR-HS,74,Raw,2000,,MA,72.3,147.5,152.5,-155,152.5,75,80,-87.5,80,162.5,172.5,180,180,412.5
4,Jason Wei,M,SBD,MR-HS,74,Raw,2000,,MA,71.5,135,147.5,-160,147.5,-70,70,-80,70,-150,150,-155,150,367.5
5,Kyle Fieleke,M,SBD,MR-HS,74,Raw,2001,,MA,72,-115,115,-125,115,-92.5,97.5,100,100,137.5,145,150,150,365
6,Chris Moore,M,SBD,MR-HS,74,Raw,1999,,CT,68.9,112.5,-120,125,125,62.5,67.5,-72.5,67.5,132.5,142.5,145,145,337.5
7,Derek Hoang,M,SBD,MR-HS,74,Raw,2001,Saint John's High School,MA,70.2,100,107.5,-115,107.5,62.5,-65,65,65,125,130,132.5,132.5,305
8,Lucas Silva,M,SBD,MR-HS,74,Raw,2000,,CT,67.2,-80,80,87.5,87.5,62.5,67.5,-72.5,67.5,117.5,130,137.5,137.5,292.5
9,Isaiah Frank,M,SBD,MR-HS,74,Raw,2001,,CT,67.5,85,92.5,-100,92.5,42.5,47.5,52.5,52.5,125,137.5,142.5,142.5,287.5
10,Liam Hartson,M,SBD,MR-HS,74,Raw,2003,Saint John's High School,MA,67.5,85,95,105,105,60,62.5,-65,62.5,102.5,110,-112.5,110,277.5
11,Truong Nguyen,M,SBD,MR-HS,74,Raw,2000,,MA,72,72.5,77.5,85,85,50,55,-62.5,55,97.5,107.5,117.5,117.5,257.5
12,George Davis,M,SBD,MR-HS,74,Raw,2003,Saint John's High School,MA,67.3,62.5,72.5,77.5,77.5,47.5,50,-52.5,50,77.5,85,95,95,222.5
DQ,Patrick Agora,M,SBD,MR-HS,74,Raw,2002,Saint John's High School,MA,71.8,92.5,100,105,105,-70,-70,-70,,115,120,127.5,127.5,
1,Darath Khon,M,SBD,MR-HS,83,Raw,2000,,MA,79.3,182.5,185,187.5,187.5,105,110,-112.5,110,235,237.5,-240,237.5,535
2,John Ou,M,SBD,MR-HS,83,Raw,1999,,MA,76.6,197.5,207.5,-210,207.5,117.5,125,130,130,182.5,187.5,195,195,532.5
3,Wu Hui Li,M,SBD,MR-HS,83,Raw,2000,,MA,82.1,165,175,-185,175,100,107.5,112.5,112.5,185,197.5,202.5,202.5,490
4,Jack Murphy,M,SBD,MR-HS,83,Raw,2000,Saint John's High School,MA,75.8,130,-135,135,135,80,-85,87.5,87.5,132.5,142.5,152.5,152.5,375
5,Josh Galer,M,SBD,MR-HS,83,Raw,2000,,CT,77,-90,90,97.5,97.5,62.5,67.5,72.5,72.5,107.5,115,122.5,122.5,292.5
DQ,Owen Eiermann,M,SBD,MR-HS,83,Raw,2001,Saint John's High School,MA,76.8,-92.5,-92.5,-92.5,,62.5,65,-67.5,65,92.5,100,107.5,107.5,
1,Steven Agora,M,SBD,MR-HS,93,Raw,2000,Saint John's High School,MA,88.6,145,152.5,160,160,117.5,122.5,125,125,182.5,195,200,200,485
2,David Diplacido,M,SBD,MR-HS,93,Raw,2000,Saint John's High School,MA,90.9,142.5,150,162.5,162.5,95,102.5,107.5,107.5,145,155,162.5,162.5,432.5
3,Zachary Hastings,M,SBD,MR-HS,93,Raw,2001,Saint John's High School,MA,86,110,117.5,125,125,70,75,77.5,77.5,140,150,155,155,357.5
4,Garrett Murphy,M,SBD,MR-HS,93,Raw,2000,,CT,87.3,102.5,112.5,-122.5,112.5,82.5,90,-97.5,90,137.5,145,152.5,152.5,355
1,Hery Hernandez,M,SBD,MR-HS,105,Raw,2002,Saint John's High School,MA,98.2,92.5,100,107.5,107.5,52.5,60,-67.5,60,105,117.5,127.5,127.5,295
1,Rolando Perea,M,SBD,MR-HS,120,Raw,2002,Saint John's High School,MA,106.9,92.5,100,105,105,70,75,-80,75,75,85,95,95,275
1,Richard Squires,M,SBD,MR-HS,120+,Raw,1999,,CT,124.9,135,142.5,152.5,152.5,80,85,90,90,135,145,150,150,392.5
2,Alexander Doiron,M,SBD,MR-HS,120+,Raw,2002,,MA,138,92.5,102.5,120,120,75,-90,-90,75,142.5,160,167.5,167.5,362.5
