Division,WeightClassKg,Place,Name,Team,BodyweightKg,Best3SquatKg,Best3BenchKg,Best3DeadliftKg,TotalKg,Equipment,Event,Sex
Boys,52,1,Justin Hernandez,Weslaco East,49.71,149.69,72.57,167.83,390.09,Single-ply,SBD,M
Boys,52,2,Daniel Jeronimo,Hidalgo Early College,50.44,136.08,54.43,138.35,328.85,Single-ply,SBD,M
Boys,52,3,Cody Acosta,PSJA,47.36,115.67,65.77,133.81,315.25,Single-ply,SBD,M
Boys,52,4,John Ortega,Mercedes,43.82,111.13,72.57,120.2,303.91,Single-ply,SBD,M
Boys,52,5,Mario Perez,Weslaco,44.36,102.06,56.7,99.79,258.55,Single-ply,SBD,M
Boys,56,1,Tyler Salazar,Donna,55.61,183.7,97.52,172.37,453.59,Single-ply,SBD,M
Boys,56,2,Marc Ortega,Mercedes,55.61,151.95,92.99,161.03,405.97,Single-ply,SBD,M
Boys,56,3,Ray Martinez,Santa Rosa,54.07,140.61,90.72,163.29,394.63,Single-ply,SBD,M
Boys,56,4,Kevin Marroquin,PSJA Southwest,55.7,124.74,74.84,158.76,358.34,Single-ply,SBD,M
Boys,56,5,Michael Puente,PSJA Southwest,52.71,124.74,74.84,147.42,347,Single-ply,SBD,M
Boys,56,6,Victor Vidal,Pharr Valley View,55.7,124.74,61.23,145.15,331.12,Single-ply,SBD,M
Boys,56,7,Aldo Salazar,Santa Rosa,52.98,102.06,74.84,124.74,301.64,Single-ply,SBD,M
Boys,60,1,Mike Barajas,Hidalgo Early College,59.6,235.87,133.81,210.92,580.6,Single-ply,SBD,M
Boys,60,2,Jerry Chavez,Donna North,59.6,167.83,90.72,165.56,424.11,Single-ply,SBD,M
Boys,60,3,Joshua Martinez,Hidalgo Early College,59.47,167.83,88.45,163.29,419.57,Single-ply,SBD,M
Boys,60,4,Ozzy Garza,PSJA Southwest,59.6,133.81,86.18,154.22,374.21,Single-ply,SBD,M
Boys,60,5,Julian Villanueva,Donna North,59.42,142.88,72.57,140.61,356.07,Single-ply,SBD,M
Boys,60,6,Aldrich Becerra,La Feria,58.33,106.59,81.65,142.88,331.12,Single-ply,SBD,M
Boys,67.5,1,Robert Alaniz,Weslaco East,66.68,201.85,120.2,210.92,532.97,Single-ply,SBD,M
Boys,67.5,2,Freddy Gonzalez,Weslaco East,67.13,201.85,133.81,190.51,526.17,Single-ply,SBD,M
Boys,67.5,3,Ryan Rodriguez,Weslaco East,66.13,197.31,106.59,190.51,494.42,Single-ply,SBD,M
Boys,67.5,4,Angel Sandoval,Donna North,65.5,174.63,95.25,197.31,467.2,Single-ply,SBD,M
Boys,67.5,5,Marcus Ysaguirre,Donna,60.6,176.9,99.79,170.1,446.79,Single-ply,SBD,M
Boys,67.5,6,Jose Tamez,Edinburg Economedes,63.5,183.7,99.79,147.42,430.91,Single-ply,SBD,M
Boys,67.5,7,Joe Colunga,Mercedes,63.32,172.37,99.79,149.69,421.84,Single-ply,SBD,M
Boys,67.5,8,Juan Gonzalez,PSJA Southwest,62.87,147.42,97.52,174.63,419.57,Single-ply,SBD,M
Boys,67.5,9,Rene Juarez #1,Weslaco,63.5,145.15,77.11,161.03,383.29,Single-ply,SBD,M
Boys,67.5,10,Edgar Conde,Pharr Valley View,66.59,129.27,68.04,145.15,342.46,Single-ply,SBD,M
Boys,75,1,Jorge Cavazos,Mercedes,71.67,217.72,129.27,213.19,560.19,Single-ply,SBD,M
Boys,75,2,Josh De La Cerda,Weslaco,73.21,215.46,138.35,197.31,551.11,Single-ply,SBD,M
Boys,75,3,Leo Cuellar,Pharr Valley View,67.59,190.51,113.4,183.7,487.61,Single-ply,SBD,M
Boys,75,4,Jesse Hernandez,Donna,69.04,167.83,88.45,181.44,437.72,Single-ply,SBD,M
Boys,75,5,Armando Ayala,Pharr Valley View,69.94,158.76,92.99,185.97,437.72,Single-ply,SBD,M
Boys,75,6,Oj Uresti,Donna North,68.31,174.63,90.72,170.1,435.45,Single-ply,SBD,M
Boys,82.5,1,Michael Valle,Hidalgo Early College,82.01,231.33,127.01,222.26,580.6,Single-ply,SBD,M
Boys,82.5,2,Juan Rojas,Donna,82.1,190.51,108.86,204.12,503.49,Single-ply,SBD,M
Boys,82.5,3,Gabriel Tijerina,PSJA,78.93,190.51,99.79,192.78,483.08,Single-ply,SBD,M
Boys,82.5,4,Imanol Ordonez,Weslaco East,76.2,163.29,115.67,197.31,476.27,Single-ply,SBD,M
Boys,82.5,5,Eddie Flores,Mercedes,77.56,183.7,102.06,181.44,467.2,Single-ply,SBD,M
Boys,82.5,6,Gabriel Salinas,Donna,81.37,183.7,90.72,174.63,449.06,Single-ply,SBD,M
Boys,82.5,7,Jose Guzman,Donna,77.2,172.37,77.11,165.56,415.04,Single-ply,SBD,M
Boys,82.5,8,Erick Rangel,La Feria,80.47,158.76,81.65,142.88,383.29,Single-ply,SBD,M
Boys,82.5,9,Irvin Castro,La Feria,79.11,154.22,92.99,133.81,381.02,Single-ply,SBD,M
Boys,82.5,10,Israel Vasquez,Santa Rosa,77.93,131.54,83.91,154.22,369.68,Single-ply,SBD,M
Boys,82.5,11,Robert Serna,Donna North,77.38,97.52,56.7,127.01,281.23,Single-ply,SBD,M
Boys,82.5,DQ,JC Pedraza,Weslaco,76.38,176.9,117.93,,,Single-ply,SBD,M
Boys,90,1,Ernesto Preciado,Pharr Valley View,88.9,244.94,151.95,233.6,630.49,Single-ply,SBD,M
Boys,90,2,Robert La Buff,Weslaco,85.64,224.53,151.95,238.14,614.62,Single-ply,SBD,M
Boys,90,3,Isaac Aleman,Hidalgo Early College,89.68,233.6,136.08,233.6,603.28,Single-ply,SBD,M
Boys,90,4,Joel Garcia,Pharr Valley View,89.36,229.06,108.86,235.87,573.79,Single-ply,SBD,M
Boys,90,5,Matthew Vela,Weslaco East,88,199.58,127.01,215.46,542.04,Single-ply,SBD,M
Boys,90,6,Justin Rodriguez,Santa Rosa,82.37,206.38,111.13,204.12,521.63,Single-ply,SBD,M
Boys,90,7,José Saldaña,La Feria,84.01,208.65,117.93,192.78,519.36,Single-ply,SBD,M
Boys,90,8,Hector Palencia,Donna,88.18,226.8,108.86,176.9,512.56,Single-ply,SBD,M
Boys,90,9,Ruben Quintanilla,PSJA Southwest,89.36,185.97,95.25,197.31,478.54,Single-ply,SBD,M
Boys,90,10,Jose Vera,PSJA,88.99,179.17,115.67,181.44,476.27,Single-ply,SBD,M
Boys,90,11,Uriel Aguilera,Pharr Valley View,87.45,188.24,106.59,167.83,462.66,Single-ply,SBD,M
Boys,90,12,Jay P Sandoval,Donna,87.91,179.17,102.06,154.22,435.45,Single-ply,SBD,M
Boys,90,13,Jesse Ramos,Weslaco,87.54,158.76,108.86,158.76,426.38,Single-ply,SBD,M
Boys,90,DQ,Isaac Rangel,Donna,89.63,,,,,Single-ply,SBD,M
Boys,90,DQ,Steven Medrano,La Feria,87.54,215.46,,,,Single-ply,SBD,M
Boys,90,DQ,Joe Ramirez,Donna,83.82,170.1,120.2,,,Single-ply,SBD,M
Boys,100,1,Eddie Hernandez,La Joya Juarez-Lincoln,92.71,235.87,145.15,208.65,589.67,Single-ply,SBD,M
Boys,100,2,Juan Flores,PSJA,95.53,229.06,149.69,204.12,582.87,Single-ply,SBD,M
Boys,100,3,Joey Castillo,PSJA Southwest,94.89,229.06,136.08,206.38,571.53,Single-ply,SBD,M
Boys,100,4,Roger Juarez,PSJA,99.7,208.65,151.95,201.85,562.45,Single-ply,SBD,M
Boys,100,5,Robert Torres,Weslaco East,96.71,219.99,131.54,208.65,560.19,Single-ply,SBD,M
Boys,100,6,Larry Ortiz,Santa Rosa,94.08,217.72,127.01,183.7,528.44,Single-ply,SBD,M
Boys,100,7,Cris Maldonado,Edinburg Economedes,98.43,190.51,136.08,197.31,523.9,Single-ply,SBD,M
Boys,100,8,Augustin Villegas,Edinburg Economedes,93.26,183.7,111.13,215.46,510.29,Single-ply,SBD,M
Boys,100,9,Victor Torres,Santa Rosa,96.52,188.24,113.4,185.97,487.61,Single-ply,SBD,M
Boys,100,10,Alfonso Cerda,Donna North,90.9,124.74,102.06,170.1,396.89,Single-ply,SBD,M
Boys,100,11,Moises Vazaldua,PSJA,94.35,145.15,90.72,149.69,385.55,Single-ply,SBD,M
Boys,100,DQ,Boxer Gomez,Edinburg Economedes,99.43,251.74,165.56,,,Single-ply,SBD,M
Boys,100,DQ,Lazaro Bernabe,Hidalgo Early College,95.3,,,,,Single-ply,SBD,M
Boys,110,1,Marcos Garza,Edinburg Economedes,107.05,265.35,161.03,249.48,675.85,Single-ply,SBD,M
Boys,110,2,Aliver Chapa,La Joya Juarez-Lincoln,107.77,254.01,161.03,235.87,650.91,Single-ply,SBD,M
Boys,110,3,Alexis Garces,PSJA Southwest,100.88,231.33,158.76,215.46,605.55,Single-ply,SBD,M
Boys,110,4,Gilbert Romero,La Joya Juarez-Lincoln,101.7,235.87,147.42,206.38,589.67,Single-ply,SBD,M
Boys,110,5,Arturo Guevara,La Feria,108.32,226.8,131.54,213.19,571.53,Single-ply,SBD,M
Boys,110,6,Enrique Guajardo,Pharr Valley View,105.51,219.99,122.47,201.85,544.31,Single-ply,SBD,M
Boys,110,7,Angel Guiterrez,Pharr Valley View,105.96,215.46,127.01,197.31,539.77,Single-ply,SBD,M
Boys,110,8,Sam Torres,Santa Rosa,105.6,199.58,102.06,192.78,494.42,Single-ply,SBD,M
Boys,110,9,Juan Martinez,La Joya Juarez-Lincoln,109.23,183.7,129.27,181.44,494.42,Single-ply,SBD,M
Boys,110,10,Jesus Segura,Weslaco,106.32,181.44,113.4,170.1,464.93,Single-ply,SBD,M
Boys,110,11,Jose Jimenez,Donna North,102.51,170.1,74.84,158.76,403.7,Single-ply,SBD,M
Boys,110,12,Darian Olazaran,PSJA Southwest,102.51,172.37,90.72,136.08,399.16,Single-ply,SBD,M
Boys,110,DQ,Gus Silva,Donna,108.41,294.84,158.76,,,Single-ply,SBD,M
Boys,110,DQ,Jarek Gonzalez,Hidalgo Early College,104.96,,,,,Single-ply,SBD,M
Boys,110,DQ,Gabriel Morales,La Feria,106.32,183.7,113.4,,,Single-ply,SBD,M
Boys,125,1,Jesus Proa,La Joya Juarez-Lincoln,115.3,276.69,176.9,231.33,684.92,Single-ply,SBD,M
Boys,125,2,Robert Perez,Weslaco,122.29,265.35,147.42,229.06,641.83,Single-ply,SBD,M
Boys,125,3,Jaime Hortado,PSJA,120.56,242.67,163.29,229.06,635.03,Single-ply,SBD,M
Boys,125,4,Adrian Fuentes,Weslaco,110.31,231.33,120.2,224.53,576.06,Single-ply,SBD,M
Boys,125,5,Fernando Mata,Donna,121.56,199.58,117.93,172.37,489.88,Single-ply,SBD,M
Boys,125,6,Roman Garza,PSJA,110.04,165.56,108.86,170.1,444.52,Single-ply,SBD,M
Boys,125,7,Aubre Elizondo,Mercedes,121.02,154.22,113.4,,267.62,Single-ply,SB,M
Boys,125,DQ,Austin Cardenas,Weslaco,119.2,233.6,136.08,,,Single-ply,SBD,M
Boys,125+,1,Daniel Roque,Weslaco East,156.31,294.84,136.08,226.8,657.71,Single-ply,SBD,M
Boys,125+,2,Sam Molina,Weslaco East,161.93,260.82,163.29,190.51,614.62,Single-ply,SBD,M
Boys,125+,3,Napoleon Garza,Hidalgo Early College,154.77,238.14,151.95,181.44,571.53,Single-ply,SBD,M
Boys,125+,4,Isaac Maynez,PSJA Southwest,127.73,226.8,147.42,183.7,557.92,Single-ply,SBD,M
Boys,125+,5,David Chapa,PSJA,131.36,229.06,117.93,206.38,553.38,Single-ply,SBD,M
Boys,125+,6,Ivan Tejada,La Feria,127.55,233.6,113.4,204.12,551.11,Single-ply,SBD,M
Boys,125+,7,Orlando Cabrera,Weslaco East,125.92,219.99,122.47,183.7,526.17,Single-ply,SBD,M
Boys,125+,8,Aj Garza,Edinburg Economedes,125.55,219.99,129.27,163.29,512.56,Single-ply,SBD,M
