Place,Sex,Name,Event,Division,WeightClassKg,Equipment,BodyweightKg,Squat1Kg,Squat2Kg,Squat3Kg,Best3SquatKg,Bench1Kg,Bench2Kg,Bench3Kg,Best3BenchKg,Deadlift1Kg,Deadlift2Kg,Deadlift3Kg,Best3DeadliftKg,TotalKg,BirthYear
1,M,Chris Northern,B,MR-O,74,Raw,73,,,,,-112.5,112.5,117.5,117.5,,,,,117.5,
1,M,Cody Collier,B,MR-O,105,Raw,95.7,,,,,130,140,-147.5,140,,,,,140,
2,M,Daniel Curtin,B,MR-O,105,Raw,102.4,,,,,120,130,-135,130,,,,,130,1986
1,M,Justin Brathwaite,B,MR-O,120,Raw,109.4,,,,,-180,187.5,-202.5,187.5,,,,,187.5,1991
1,F,Alyssa Perez,B,FR-O,52,Raw,49.7,,,,,37.5,42.5,-47.5,42.5,,,,,42.5,1991
1,F,Holly Klink,B,FR-O,57,Raw,55,,,,,52.5,-57.5,-57.5,52.5,,,,,52.5,1971
1,F,Monica Saucedo,B,FR-O,84,Raw,80.9,,,,,55,60,-62.5,60,,,,,60,1984
1,M,Delroy Williams,D,MR-O,93,Raw,87.4,,,,,,,,,205,215,220,220,220,
1,M,Cody Collier,D,MR-O,105,Raw,95.7,,,,,,,,,212.5,225,240,240,240,
2,M,Daniel Curtin,D,MR-O,105,Raw,102.4,,,,,,,,,185,195,200,200,200,1986
1,F,Alyssa Perez,D,FR-O,52,Raw,49.7,,,,,,,,,87.5,97.5,102.5,102.5,102.5,1991
1,F,Holly Klink,D,FR-O,57,Raw,55,,,,,,,,,102.5,107.5,115,115,115,1971
1,F,Shelby Domarasky,D,FR-O,72,Raw,66.8,,,,,,,,,112.5,117.5,130,130,130,1993
2,F,Heide Herrmann,D,FR-O,72,Raw,69.5,,,,,,,,,105,112.5,120,120,120,1973
1,F,Monica Saucedo,D,FR-O,84,Raw,80.9,,,,,,,,,115,125,130,130,130,1984
1,M,Finn Bucci,SBD,MR-O,53,Raw,52.9,62.5,-67.5,70,70,42.5,45,-47.5,45,85,92.5,105,105,220,2000
1,M,Alexander Kang,SBD,MR-O,66,Raw,66,155,165,175,175,97.5,105,110,110,207.5,227.5,245,245,530,1984
2,M,Jonathan Morales,SBD,MR-O,66,Raw,65.6,145,155,-160,155,82.5,-87.5,-87.5,82.5,165,175,180,180,417.5,
1,M,Chris Northern,SBD,MR-O,74,Raw,73,155,165,172.5,172.5,-112.5,112.5,117.5,117.5,175,187.5,197.5,197.5,487.5,
2,M,Justin Rhee,SBD,MR-O,74,Raw,73.3,102.5,120,-132.5,120,92.5,102.5,105,105,142.5,160,-180,160,385,1992
1,M,Patrick Carr,SBD,MR-O,83,Raw,81.9,180,190,-197.5,190,130,137.5,142.5,142.5,210,222.5,235,235,567.5,1990
2,M,Bobby Paulshock,SBD,MR-O,83,Raw,77.5,180,192.5,-200,192.5,110,117.5,-122.5,117.5,207.5,222.5,232.5,232.5,542.5,1989
3,M,Eric Sagastizado,SBD,MR-O,83,Raw,81.3,187.5,-192.5,-192.5,187.5,105,112.5,-120,112.5,195,205,-215,205,505,1997
4,M,Gregory Walsh,SBD,MR-O,83,Raw,81.1,155,-167.5,-167.5,155,107.5,-112.5,-112.5,107.5,202.5,-217.5,227.5,227.5,490,
5,M,James Foster,SBD,MR-O,83,Raw,80.3,170,-185,-185,170,90,-97.5,-97.5,90,205,-220,220,220,480,
6,M,Jason Toner,SBD,MR-O,83,Raw,80.6,155,162.5,170,170,107.5,112.5,115,115,165,172.5,185,185,470,1989
7,M,Gary Piecuch,SBD,MR-O,83,Raw,79.3,137.5,-147.5,150,150,105,115,-117.5,115,177.5,190,-265,190,455,1984
8,M,Simon Jiang,SBD,MR-O,83,Raw,75.8,100,,,100,110,117.5,125,125,182.5,195,210,210,435,1995
9,M,Andrew Jiang,SBD,MR-O,83,Raw,76.2,115,125,135,135,67.5,72.5,77.5,77.5,112.5,122.5,137.5,137.5,350,2001
1,M,Dustin Wharton,SBD,MR-O,93,Raw,92.1,250,262.5,-272.5,262.5,192.5,200,,200,250,265,,265,727.5,
2,M,Andre Marques,SBD,MR-O,93,Raw,90.8,207.5,217.5,230,230,132.5,142.5,152.5,152.5,205,220,232.5,232.5,615,1993
3,M,Delroy Williams,SBD,MR-O,93,Raw,87.4,205,217.5,227.5,227.5,125,137.5,140,140,205,215,220,220,587.5,
4,M,Matthew Hood,SBD,MR-O,93,Raw,90.9,170,-185,195,195,-125,125,-132.5,125,212.5,222.5,230,230,550,1995
5,M,Nicholas Fogleman,SBD,MR-O,93,Raw,92,177.5,187.5,192.5,192.5,110,120,127.5,127.5,195,210,220,220,540,
6,M,James Brockmeyer,SBD,MR-O,93,Raw,90.9,172.5,185,192.5,192.5,100,112.5,-115,112.5,202.5,217.5,227.5,227.5,532.5,1990
7,M,Steve McClung,SBD,MR-O,93,Raw,89.9,137.5,145,150,150,97.5,105,110,110,180,185,190,190,450,1984
8,M,Andrew Choi,SBD,MR-O,93,Raw,92.6,205,220,-230,220,125,-137.5,-137.5,125,60,,,60,405,1989
1,M,Anthony Succarotte,SBD,MR-O,105,Raw,101.4,210,240,-265,240,170,195,,195,185,210,,210,645,1964
2,M,Colin Ripley,SBD,MR-O,105,Raw,103.4,225,,,225,115,,,115,250,275,,275,615,1994
3,M,Cody Collier,SBD,MR-O,105,Raw,95.7,185,202.5,210,210,130,140,-147.5,140,212.5,225,240,240,590,
4,M,Daniel Curtin,SBD,MR-O,105,Raw,102.4,165,175,182.5,182.5,120,130,-135,130,185,195,200,200,512.5,1986
1,M,Hifon Smith,SBD,MR-O,120,Raw,114.2,272.5,305,,305,-157.5,157.5,182.5,182.5,272.5,-340,340,340,827.5,1971
2,M,Jonathan Hoover,SBD,MR-O,120,Raw,114.1,-185,185,190,190,-130,130,135,135,220,230,250,250,575,
DQ,M,Justin Brathwaite,SBD,MR-O,120,Raw,109.4,-162.5,-182.5,-182.5,,-180,187.5,-202.5,187.5,-160,,,,,1991
1,M,Shahzeib Syed,SBD,MR-O,120+,Raw,128.7,200,225,-240,225,152.5,-167.5,-167.5,152.5,227.5,240,-252.5,240,617.5,1991
1,F,Alyssa Perez,SBD,FR-O,52,Raw,49.7,67.5,77.5,82.5,82.5,37.5,42.5,-47.5,42.5,87.5,97.5,102.5,102.5,227.5,1991
1,F,Sarah Jones,SBD,FR-O,57,Raw,56.2,105,112.5,-117.5,112.5,62.5,65,67.5,67.5,105,112.5,120,120,300,1993
2,F,Holly Klink,SBD,FR-O,57,Raw,55,77.5,-82.5,82.5,82.5,52.5,-57.5,-57.5,52.5,102.5,107.5,115,115,250,1971
3,F,Joyce Kuwae,SBD,FR-O,57,Raw,53.8,57.5,-62.5,62.5,62.5,32.5,-35,35,35,85,90,95,95,192.5,1977
1,F,Rebecca McPeak,SBD,FR-O,63,Raw,62,77.5,85,90,90,55,60,-65,60,102.5,110,115,115,265,1979
2,F,Natasha Atkinson,SBD,FR-O,63,Raw,61.4,67.5,75,-82.5,75,52.5,-57.5,-57.5,52.5,97.5,105,-112.5,105,232.5,1964
1,F,Jenny Nocas,SBD,FR-O,72,Raw,71.7,122.5,130,137.5,137.5,85,-90,-90,85,142.5,152.5,-160,152.5,375,1993
2,F,Amanda Kim,SBD,FR-O,72,Raw,68,-112.5,115,120,120,-65,70,-72.5,70,115,122.5,130,130,320,1990
3,F,Michelle Versace,SBD,FR-O,72,Raw,71.9,100,105,110,110,52.5,55,-57.5,55,122.5,130,-137.5,130,295,
4,F,Shelby Domarasky,SBD,FR-O,72,Raw,66.8,95,102.5,-110,102.5,52.5,57.5,-62.5,57.5,112.5,117.5,130,130,290,1993
5,F,Heide Herrmann,SBD,FR-O,72,Raw,69.5,85,92.5,97.5,97.5,40,-47.5,47.5,47.5,105,112.5,120,120,265,1973
DQ,F,Meagan Deppe,SBD,FR-O,72,Raw,70.3,-127.5,-140,-140,,-57.5,57.5,-62.5,57.5,127.5,132.5,140,140,,
1,F,Cristi Bartlett,SBD,FR-O,84,Raw,83,135,142.5,150,150,97.5,105,112.5,112.5,200,220,227.5,227.5,490,1986
2,F,Monica Saucedo,SBD,FR-O,84,Raw,80.9,97.5,107.5,115,115,55,60,-62.5,60,115,125,130,130,305,1984
