Place,Sex,Name,Event,Division,WeightClassKg,Equipment,BodyweightKg,Best3SquatKg,Best3BenchKg,Best3DeadliftKg,TotalKg,BirthYear
1,M,Anthony Palacios,B,JR,110,Single-ply,102.6,,160,,160,1993
1,M,Brian Luangraj,B,R-JR,82.5,Raw,80.1,,140,,140,1992
1,M,Eric Lopez,B,O,110,Single-ply,110,,242.5,,242.5,1988
1,M,Ramiro Espinosa,B,R-O,82.5,Raw,81.8,,162.5,,162.5,1988
1,M,LS McClain,B,R-O,90,Raw,89.7,,215,,215,1978
1,M,Daniel Fye,B,R-O,125+,Raw,130.3,,137.5,,137.5,1980
1,M,Sam Felts,B,R-M3a,60,Raw,59.7,,110,,110,1952
1,M,Jermaine Thomas,B,R-JR,105,Raw,93.3,,150,,150,1973
DD,M,Larry Fenti,SBD,R-M1a,100,Raw,99.8,,165,,,
1,M,Seyha Kim,D,R-JR,75,Raw,72.1,,,205,205,1990
1,M,Benji Nanthavongdoungsy,D,R-JR,82.5,Raw,81.9,,,142.5,142.5,
1,M,Bob Hafner,D,O,100,Single-ply,96.4,,,227.5,227.5,
1,M,Gary Hunter #1,D,R-O,60,Raw,58.5,,,200,200,1987
1,M,Ramiro Espinosa,D,R-O,82.5,Raw,81.8,,,260,260,1988
1,M,LS McClain,D,R-O,90,Raw,89.7,,,292.5,292.5,1978
1,F,Roselyn Salazar,D,R-JR,52,Raw,51.4,,,97.5,97.5,1992
1,M,Anthony McGuill,SBD,R-T1,82.5,Raw,77.8,137.5,87.5,160,385,1998
1,M,Joshua Moreno,SBD,R-T2,75,Raw,74.2,202.5,130,227.5,560,1996
1,M,Ashton Rouska,SBD,R-T2,82.5,Raw,80,215,143,282.5,640.5,1997
1,M,Dustin Lewis,SBD,R-T2,90,Raw,89.6,165,95,175,435,1997
1,M,Michael Rodriguez,SBD,R-T2,125,Raw,113.2,277.5,187.5,280,745,1996
1,M,Marcus Hernandez,SBD,R-T3,60,Raw,58.8,137.5,90,192.5,420,1995
1,M,Jerry Alaniz,SBD,R-T3,67.5,Raw,64.3,180,136.5,201.5,518,1995
1,M,Eddie Suarez,SBD,R-T3,75,Raw,68.1,185,132.5,200,517.5,1994
1,M,AJ Alvarez,SBD,R-T3,100,Raw,98.1,267.5,170,257.5,695,1994
1,M,Adam Tuppen,SBD,T1,82.5,Single-ply,80.2,167.5,110,195,472.5,1994
1,M,Benjamin Nevares,BD,T2,90,Single-ply,82.6,,162.5,272.5,435,1996
1,M,Lawrence Joseph Valdez,SBD,T3,90,Single-ply,85.3,262.5,165,227.5,655,
1,M,Richard Pena,SBD,T3,100,Single-ply,92,290,205,247.5,742.5,
2,M,Michael Davis,SBD,T3,100,Single-ply,92.5,235,147.5,250,632.5,1995
3,M,Paul Alabi,SBD,T3,100,Single-ply,98.3,240,142.5,240,622.5,1993
1,M,Faithful Alabi,SBD,T3,110,Single-ply,105.4,252.5,155,247.5,655,1995
1,M,Michael Alviar,SBD,T3,125,Single-ply,114.9,237.5,202.5,220,660,1994
2,M,Jerry Nduji,SBD,T3,125,Single-ply,121,230,142.5,225,597.5,1995
1,M,Adolfo Gomez,BD,T3,125+,Single-ply,167,,227.5,240,467.5,1994
1,M,Mario Davila,SBD,JR,75,Single-ply,73.6,207.5,127.5,215,550,
2,M,Adam Drescher,SBD,JR,75,Single-ply,72.1,165,85,185,435,1994
1,M,Robert Golshan,SBD,JR,82.5,Single-ply,82.3,160,90,180,430,1994
1,M,Brennan Riche,SBD,JR,100,Single-ply,92.9,287.5,212.5,272.5,772.5,1992
2,M,Garrett Bailey,SBD,JR,100,Single-ply,92.8,250,165,305,720,1992
1,M,William LeBlanc,SBD,JR,110,Single-ply,104.4,350,200,345,895,1990
2,M,George Pena,SBD,JR,110,Single-ply,102.4,275,205,252.5,732.5,1992
3,M,Michael Butler,SBD,JR,110,Single-ply,105.6,237.5,150,222.5,610,1990
1,M,Terry Powell,SBD,JR,125,Single-ply,114.7,272.5,170,272.5,715,
1,M,Joe Sharp,SBD,JR,125+,Single-ply,142.5,280,252.5,257.5,790,
2,M,Ryan Carrillo,BD,JR,125+,Single-ply,152.4,,275,290,565,1991
1,M,Chris Nguyen,SBD,R-JR,67.5,Raw,66.7,160,107.5,187.5,455,1989
1,M,Garrett Wilson,SBD,R-JR,82.5,Raw,81.9,155,137.5,182.5,475,1991
1,M,Jeffery Moreno,SBD,R-JR,100,Raw,97.3,260,185,282.5,727.5,
2,M,Garrett Bailey,SBD,R-JR,100,Raw,93.9,237.5,162.5,325,725,1992
3,M,Westbrook Nathan,SBD,R-JR,100,Raw,99.3,260,170,290,720,1992
4,M,Martin Halfant,SBD,R-JR,100,Raw,97.7,185,130,235,550,1990
1,M,Jeddy Yuan,SBD,Y1,67.5,Single-ply,64.7,135,102.5,192.5,430,1989
1,M,Tyler Wilburn,SBD,Y1,82.5,Single-ply,81.5,220,142.5,227.5,590,1993
1,M,Derek Ward,SD,O,60,Single-ply,58.6,165,,165,330,1992
1,M,Anthony Grimes,SBD,O,67.5,Single-ply,65,192.5,122.5,252.5,567.5,1994
2,M,Logan Rhame,SBD,O,67.5,Single-ply,64.7,152.5,100,170,422.5,1994
1,M,Aaron Pomerantz,SBD,O,75,Single-ply,73.8,212.5,205,205,622.5,1995
2,M,Hugo Ceja,SBD,O,75,Single-ply,72,185,140,232.5,557.5,1993
1,M,Alex Mansker,SBD,O,82.5,Single-ply,80.8,200,150,227.5,577.5,1991
2,M,Matthew Glenn,SBD,O,82.5,Single-ply,82.5,182.5,145,227.5,555,1993
3,M,Josh Trammell,SBD,O,82.5,Single-ply,81.5,187.5,110,207.5,505,
1,M,Dan Bass,SBD,O,100,Single-ply,95,260,147.5,235,642.5,
2,M,Jordan Glenn,BD,O,100,Single-ply,91.6,,227.5,280,507.5,1993
1,M,Luis Munoz III,SBD,O,110,Single-ply,103.6,242.5,182.5,205,630,1988
2,M,Rob Garza,SD,O,110,Single-ply,105.4,267.5,,260,527.5,
1,M,Dustin Meaux,SBD,O,125+,Single-ply,142.8,345,277.5,302.5,925,1984
2,M,Ross Carter,BD,O,125+,Single-ply,137.3,,220,272.5,492.5,1994
1,M,Quentin Myers,SBD,R-O,67.5,Raw,62.5,185,132.5,212.5,530,1986
2,M,Milton Morehead,SBD,R-O,67.5,Raw,66,182.5,122.5,212.5,517.5,1977
1,M,Alexis Maher,SBD,R-O,75,Raw,68.3,185,95,235,515,1995
1,M,Michael Parrott,SBD,R-O,82.5,Raw,80.4,222.5,147.5,257.5,627.5,1985
2,M,Ramiro Espinosa,SBD,R-O,82.5,Raw,81.8,202.5,162.5,260,625,1988
3,M,Hilmi Judeh,SBD,R-O,82.5,Raw,82.4,142.5,105,200,447.5,1985
1,M,LS McClain,SBD,R-O,90,Raw,89.7,250,215,292.5,757.5,1978
2,M,Joshua Mercardo,SBD,R-O,90,Raw,89,180,127.5,205,512.5,
3,M,Richard Davila,SBD,R-O,90,Raw,84.4,147.5,110,207.5,465,1983
1,M,Ryan Matthews,SBD,R-O,110,Raw,109.7,265,165,305,735,
2,M,Matthew Albright,SBD,R-O,110,Raw,107.1,265,172.5,295,732.5,1982
1,M,Jamie Wang,SBD,R-O,125+,Raw,140,160,120,207.5,487.5,1981
1,M,Isaias Gonzalez,SBD,M1a,60,Single-ply,57.3,167.5,110,175,452.5,1994
1,M,Kenny Nguyen,SBD,M1a,67.5,Single-ply,65.1,212.5,200.5,227.5,640.5,1995
1,M,Michael Briones,SBD,M1b,75,Single-ply,73.3,205,137.5,197.5,540,1995
2,M,John Le,SD,M1b,75,Single-ply,73.7,205,,205,410,1993
1,M,Isaac Hernandez,SBD,M1b,82.5,Single-ply,79.9,197.5,142.5,200,540,1995
1,M,Jonathan Lwowski,SBD,M2a,82.5,Single-ply,82.4,215,110,217.5,542.5,1994
1,M,Jake Martinez,SBD,M2b,75,Single-ply,73.2,220,132.5,230,582.5,1993
1,M,Joshua Estrada,S,M3a,60,Single-ply,58.3,182.5,,,182.5,
1,M,Mauricio Valdez,SBD,M3a,82.5,Single-ply,82.4,267.5,175,257.5,700,1994
2,M,Fisher Sutterfield,SBD,M3a,82.5,Single-ply,80.7,227.5,152.5,225,605,1994
1,M,Andrew Sandoval,SBD,M3b,75,Single-ply,70.6,215,167.5,222.5,605,1992
1,M,Bryce Siecko,SBD,M3b,90,Single-ply,82.7,285,175,262.5,722.5,1992
1,M,Jess Rutledge,SBD,M4a,67.5,Single-ply,64.7,200,115,202.5,517.5,1994
1,M,Sam Hamilton,SBD,M4b,75,Single-ply,72.7,172.5,105,192.5,470,1992
1,M,Gustavo X. Maldonado,SBD,M5a,67.5,Single-ply,65.5,197.5,97.5,200,495,
1,M,Alex Smith,SBD,M5a,82.5,Single-ply,80.8,272.5,205,242.5,720,1990
1,M,Curtis Raymond,SBD,M5a,100,Single-ply,90.5,105,107.5,152.5,365,1932
1,M,Brig Seaver,SBD,R-M3a,75,Raw,74.6,110,80,160,350,1951
1,M,Joe Lucio,SBD,R-M3b,90,Raw,88.4,150,102.5,170,422.5,1947
1,F,Analisa Narro,SBD,R-T1,60,Raw,57.3,77.5,55,100,232.5,1998
1,F,Ashley Garay,SBD,R-T3,48,Raw,47.7,102.5,50,128,280.5,1995
1,F,Brytany Ybarra,SBD,R-T3,52,Raw,51.4,102.5,65,115,282.5,1995
1,F,Bianca Ortega,SBD,R-Y,52,Raw,51.3,52.5,32.5,80,165,2001
1,F,Amanda Rodriguez,SBD,T2,44,Single-ply,43,82.5,47.5,92.5,222.5,1996
1,F,Julie Lopez,SBD,T2,52,Single-ply,52,87.5,40,102.5,230,1996
1,F,Sabrina Albury,SBD,T2,56,Single-ply,56,100,45,115,260,1997
1,F,Natalie Barrera,SBD,T2,75,Single-ply,71.3,182.5,87.5,140,410,1997
1,F,Victoria Vargas,SBD,T3,48,Single-ply,46.5,130,87.5,137.5,355,1994
2,F,Hllegra Hudson,SBD,T3,48,Single-ply,45.5,125,62.5,140,327.5,
3,F,Ashley Guzman,SBD,T3,48,Single-ply,47,82.5,32.5,82.5,197.5,1995
1,F,Gabrielle Hurley,SBD,T3,52,Single-ply,48.8,100,50,120,270,1994
2,F,Cameron Ruiz,SBD,T3,52,Single-ply,51.7,72.5,35,100,207.5,1995
3,F,Sydney Horton,BD,T3,52,Single-ply,51.1,,40,97.5,137.5,1993
1,F,Amanda Vega,SBD,T3,60,Single-ply,57.1,112.5,60,132.5,305,1994
1,F,Giovanna Ortega,SBD,T3,67.5,Single-ply,61.1,165,75,160,400,1994
2,F,Lauren Lumague,SBD,T3,67.5,Single-ply,61.2,90,35,115,240,1994
3,F,Samantha Neal,BD,T3,67.5,Single-ply,61.4,,50,105,155,1992
1,F,Talia Ramirez,SBD,T3,75,Single-ply,71.4,175,65,162.5,402.5,1995
1,F,Aimee Almanza,SBD,T3,82.5,Single-ply,80.9,167.5,77.5,152.5,397.5,1993
1,F,Priscilla Perez,SBD,T3,90+,Single-ply,102,147.5,87.5,150,385,1995
2,F,Allison Garcia,BD,T3,90+,Single-ply,104,,95,175,270,1995
3,F,Alexandra García,BD,T3,90+,Single-ply,105.8,,90,155,245,1995
1,F,Tiffany Vu,SBD,JR,44,Single-ply,42.5,87.5,45,125,257.5,1992
2,F,Melissa Vongsouvahn,SBD,JR,44,Single-ply,43.2,85,37.5,82.5,205,
1,F,Alexsandra Trevino,SBD,JR,48,Single-ply,47.9,75,45,87.5,207.5,1992
1,F,Desiree Estrada,SBD,JR,52,Single-ply,49.5,130,62.5,150,342.5,1992
2,F,Raquel Salinas,SBD,JR,52,Single-ply,49.7,75,40,95,210,1992
1,F,Brittany Flores,SBD,JR,60,Single-ply,57.1,140,85,175,400,1993
1,F,Alexandria Rosales,SBD,JR,67.5,Single-ply,61.7,117.5,62.5,115,295,1990
1,F,Molly Zunker,SBD,R-JR,48,Raw,46.2,102.5,57.5,142.5,302.5,1991
1,F,Lizette Alvarez,SBD,R-JR,56,Raw,55.9,105,60,133,298,
1,F,Angela Rodriguez,SBD,Y1,75,Single-ply,67.6,100,57.5,115,272.5,1995
2,F,Grace Parker,SBD,Y1,75,Single-ply,71,95,42.5,117.5,255,1995
1,F,Ambria Allison,SBD,O,67.5,Single-ply,65.5,115,45,112.5,272.5,1994
2,F,Meghali Chopra,SBD,O,67.5,Single-ply,61.7,67.5,50,115,232.5,1989
1,F,Dominique McGaha,SBD,O,75,Single-ply,69.3,127.5,52.5,135,315,1994
2,F,Mikayla Sands,SBD,O,75,Single-ply,72,80,37.5,85,202.5,1994
1,F,Jalyn Holt,SBD,O,82.5,Single-ply,76.3,132.5,52.5,117.5,302.5,1993
1,F,Claudia Jimenez,SBD,R-O,48,Raw,45,75,35,85,195,1974
1,F,Andrea Palella,SBD,R-O,52,Raw,50.2,77.5,60,80,217.5,1989
1,F,Lenny Behr,SBD,R-O,56,Raw,54.8,80,52.5,117.5,250,1989
2,F,Tina Dang,BD,R-O,56,Raw,52.6,,52.5,105,157.5,1988
1,F,Laura McGuill,SBD,R-O,60,Raw,58.4,125,60,152.5,337.5,1991
1,F,Valerie Moreno,SBD,R-O,67.5,Raw,62.6,72.5,47.5,115,235,1988
2,F,Mayra Harmon,SBD,R-O,67.5,Raw,66.7,77.5,45,102.5,225,1986
1,F,Rachel Gibson,SBD,R-O,82.5,Raw,81.9,155,77.5,160,392.5,1988
2,F,Molly Gensler,SBD,R-O,82.5,Raw,76.1,125,72.5,182.5,380,1987
1,F,Cristal Cabral,SBD,M1a,67.5,Single-ply,64.1,167.5,82.5,175,425,1994
1,F,Dorthy Tran,SBD,M1a,75,Single-ply,72.9,165,90,182.5,437.5,
1,F,Amber Blankemeyer,SBD,M1a,90+,Single-ply,100.4,102.5,75,142.5,320,1995
1,F,Marilyn Mickey,SBD,R-M1a,60,Raw,59.6,97.5,52.5,125,275,1972
1,F,Cameron King,BD,M3a,67.5,Single-ply,61.8,,27.5,100,127.5,1994
1,M,Tom Luangraj,BD,R-JR,82.5,Raw,81,,137.5,217.5,355,1969
1,M,Ramiro Espinosa,BD,R-O,82.5,Raw,81.8,,162.5,260,422.5,1988
2,M,Ramiro Espinosa,BD,R-O,82.5,Raw,81.8,,162.5,260,422.5,1988
3,M,Tom Luangraj,BD,R-O,82.5,Raw,81,,137.5,217.5,355,1969
1,M,LS McClain,BD,R-O,90,Raw,89.7,,215,292.5,507.5,1978
2,M,Christopher Monroe,D,R-O,90,Raw,85.4,,,162.5,162.5,1988
1,F,Ann Fengfish,BD,R-O,67.5,Raw,66.7,,42.5,90,132.5,1981
