Division,WeightClassKg,Place,Name,Team,BodyweightKg,Best3SquatKg,Best3BenchKg,Best3DeadliftKg,TotalKg,Equipment,Event,Sex
Boys,52,1,Diego Gallegos,Alvin,51.26,154.22,88.45,183.7,426.38,Single-ply,SBD,M
Boys,52,2,Timothy Le,Port Neches-Groves,51.07,149.69,81.65,165.56,396.89,Single-ply,SBD,M
Boys,52,3,Jacory Bellnamy,Houston Madison,51.07,147.42,70.31,167.83,385.55,Single-ply,SBD,M
Boys,52,4,Brian Cunningham,Nederland,51.26,147.42,83.91,154.22,385.55,Single-ply,SBD,M
Boys,52,5,Raymond Garza,Clute Brazoswood,51.17,140.61,74.84,138.35,353.8,Single-ply,SBD,M
Boys,52,6,Brendon Jones,Nederland,51.44,154.22,63.5,131.54,349.27,Single-ply,SBD,M
Boys,52,7,Axel Morfin,Conroe Woodlands College Park,51.71,129.27,70.31,131.54,331.12,Single-ply,SBD,M
Boys,52,8,Nathan Acosta,Pearland Dawson,50.89,127.01,61.23,131.54,319.78,Single-ply,SBD,M
Boys,52,9,Jaylynn Mitchell,Crosby,51.71,117.93,70.31,117.93,306.17,Single-ply,SBD,M
Boys,52,10,Raul Diaz,Alvin,45.36,106.59,61.23,111.13,278.96,Single-ply,SBD,M
Boys,52,11,Jack Lockhart,Conroe The Woodlands,50.44,99.79,65.77,111.13,276.69,Single-ply,SBD,M
Boys,52,12,Noel Spurlock,Montgomery,49.9,99.79,54.43,115.67,269.89,Single-ply,SBD,M
Boys,56,1,Blake Gamez,La Porte,55.34,190.51,106.59,192.78,489.88,Single-ply,SBD,M
Boys,56,2,AJ Ono,Conroe The Woodlands,55.07,163.29,102.06,174.63,439.98,Single-ply,SBD,M
Boys,56,3,Carlos Salazar,Manvel,55.79,172.37,97.52,170.1,439.98,Single-ply,SBD,M
Boys,56,4,Jaycob Warchesik,Manvel,55.7,158.76,92.99,167.83,419.57,Single-ply,SBD,M
Boys,56,5,Romello Hoyle,Houston Madison,55.7,154.22,92.99,158.76,405.97,Single-ply,SBD,M
Boys,56,6,Matthew Longoria,Alvin,54.43,138.35,111.13,149.69,399.16,Single-ply,SBD,M
Boys,56,7,Kelbe Sylvan,Katy Taylor,55.07,154.22,68.04,170.1,392.36,Single-ply,SBD,M
Boys,56,8,Tru'Dareyian Andrus,Port Arthur Memorial,55.79,131.54,72.57,172.37,376.48,Single-ply,SBD,M
Boys,56,9,Angel Medrano,Manvel,53.98,131.54,88.45,145.15,365.14,Single-ply,SBD,M
Boys,56,10,Justin Troublefield,Magnolia,55.52,145.15,70.31,149.69,365.14,Single-ply,SBD,M
Boys,56,11,Phong Nguyen,Clute Brazoswood,55.52,142.88,63.5,142.88,349.27,Single-ply,SBD,M
Boys,56,12,Nicholas Daigle,Waller,55.16,117.93,63.5,163.29,344.73,Single-ply,SBD,M
Boys,56,DQ,Marcus Mayorga,Pearland,,,,,,Single-ply,SBD,M
Boys,56,DQ,Taylor Riley,Magnolia,,,,,,Single-ply,SBD,M
Boys,60,1,Chien Phan,Dickinson,59.51,204.12,99.79,192.78,496.68,Single-ply,SBD,M
Boys,60,2,Brandon Coon,Conroe Caney Creek,59.78,183.7,81.65,183.7,449.06,Single-ply,SBD,M
Boys,60,3,Nigel Moyer,Conroe The Woodlands,59.15,165.56,111.13,170.1,446.79,Single-ply,SBD,M
Boys,60,4,James Traylor,Montgomery,59.33,170.1,88.45,172.37,430.91,Single-ply,SBD,M
Boys,60,5,Edgar Benegas,Conroe,58.6,158.76,79.38,188.24,426.38,Single-ply,SBD,M
Boys,60,6,Tommy Phan,Dickinson,59.6,142.88,86.18,158.76,387.82,Single-ply,SBD,M
Boys,60,7,Jessie Yanez,Channelview,59.6,154.22,83.91,142.88,381.02,Single-ply,SBD,M
Boys,60,8,Alex Celaya,Nederland,59.69,140.61,77.11,154.22,371.95,Single-ply,SBD,M
Boys,60,9,Nick Provost,Conroe The Woodlands,58.6,140.61,65.77,158.76,365.14,Single-ply,SBD,M
Boys,60,10,Ryan Anthis,Waller,59.42,136.08,65.77,158.76,360.61,Single-ply,SBD,M
Boys,67.5,1,Zach Mutchler,Alvin,66.22,251.74,161.03,215.46,628.23,Single-ply,SBD,M
Boys,67.5,2,Gavin Webster,Conroe The Woodlands,64.5,217.72,145.15,238.14,601.01,Single-ply,SBD,M
Boys,67.5,3,Grayson Brown,Conroe The Woodlands,65.5,238.14,131.54,183.7,553.38,Single-ply,SBD,M
Boys,67.5,4,Pablo Cavazos,Dickinson,65.32,226.8,90.72,226.8,544.31,Single-ply,SBD,M
Boys,67.5,5,Ryan Leleux,Nederland,66.32,195.04,117.93,219.99,532.97,Single-ply,SBD,M
Boys,67.5,6,Caleb Hall,Montgomery,65.68,215.46,113.4,192.78,521.63,Single-ply,SBD,M
Boys,67.5,7,Gin Ivey,Conroe Oak Ridge,65.77,190.51,117.93,201.85,510.29,Single-ply,SBD,M
Boys,67.5,8,Cameron Guillen,Clute Brazoswood,64.5,197.31,102.06,199.58,498.95,Single-ply,SBD,M
Boys,67.5,9,Anthony Salazar,Conroe The Woodlands,64.77,181.44,120.2,190.51,492.15,Single-ply,SBD,M
Boys,67.5,DQ,Garet Stuckey,Conroe Caney Creek,66.77,,,,,Single-ply,SBD,M
Boys,67.5,DQ,Jim Tran,Dickinson,65.77,204.12,127.01,,,Single-ply,SBD,M
Boys,67.5,DQ,Kenny Bounds,Montgomery,65.5,,,,,Single-ply,SBD,M
Boys,75,1,Jared Hernandez,Texas City,73.57,217.72,142.88,229.06,589.67,Single-ply,SBD,M
Boys,75,2,Gage Carreon,Port Neches-Groves,74.39,215.46,131.54,217.72,564.72,Single-ply,SBD,M
Boys,75,3,Dillan Roberson,Conroe,74.12,217.72,129.27,208.65,555.65,Single-ply,SBD,M
Boys,75,4,Jimmie Moore,Conroe Oak Ridge,74.48,229.06,106.59,204.12,539.77,Single-ply,SBD,M
Boys,75,5,Ashton Zamora,Nederland,73.57,210.92,99.79,222.26,532.97,Single-ply,SBD,M
Boys,75,6,James Jones,Beaumont West Brook,74.75,204.12,124.74,204.12,532.97,Single-ply,SBD,M
Boys,75,7,Beau Ramos,Texas City,73.57,204.12,115.67,208.65,528.44,Single-ply,SBD,M
Boys,75,8,Hampton Zarzour,Conroe,74.03,208.65,115.67,197.31,521.63,Single-ply,SBD,M
Boys,75,9,Dawson Norbriga,Channelview,72.85,197.31,131.54,183.7,512.56,Single-ply,SBD,M
Boys,75,10,Randy Cornejo,Conroe Caney Creek,70.31,195.04,99.79,215.46,510.29,Single-ply,SBD,M
Boys,75,11,Luis Garza,La Porte,73.66,185.97,92.99,204.12,483.08,Single-ply,SBD,M
Boys,75,DQ,Tuciano Pope,Channelview,,,,,,Single-ply,SBD,M
Boys,75,DQ,Davian Smith,Beaumont Central,,,,,,Single-ply,SBD,M
Boys,75,DQ,Odis Mack,Port Arthur Memorial,74.84,217.72,106.59,,,Single-ply,SBD,M
Boys,82.5,1,Cournelious Vaughans,Dickinson,81.56,265.35,165.56,240.4,671.32,Single-ply,SBD,M
Boys,82.5,2,Raymond Castillo,Manvel,80.38,244.94,156.49,233.6,635.03,Single-ply,SBD,M
Boys,82.5,3,Ronald Zamora,Nederland,81.28,235.87,170.1,222.26,628.23,Single-ply,SBD,M
Boys,82.5,4,Kris Narcisse,Beaumont Ozen,81.19,240.4,154.22,217.72,612.35,Single-ply,SBD,M
Boys,82.5,5,Jaxen Halbaedier,Willis,81.28,238.14,127.01,213.19,578.33,Single-ply,SBD,M
Boys,82.5,6,Josh Troupe,La Porte,80.74,215.46,145.15,215.46,576.06,Single-ply,SBD,M
Boys,82.5,7,Dustin Tater,Vidor,79.29,204.12,133.81,233.6,571.53,Single-ply,SBD,M
Boys,82.5,8,Sterling Winzor,Beaumont Ozen,80.74,204.12,127.01,235.87,566.99,Single-ply,SBD,M
Boys,82.5,9,Daniel Guilbeaux,Nederland,81.19,217.72,136.08,213.19,566.99,Single-ply,SBD,M
Boys,82.5,10,Jason Campbell,Conroe Woodlands College Park,81.1,213.19,115.67,233.6,562.45,Single-ply,SBD,M
Boys,82.5,11,Lance Cole,Crosby,81.19,213.19,140.61,208.65,562.45,Single-ply,SBD,M
Boys,82.5,DQ,Markel Perry,Beaumont Ozen,81.37,195.04,,,,Single-ply,SBD,M
Boys,90,1,Dylan Bates,Conroe Oak Ridge,87.72,256.28,158.76,249.48,664.51,Single-ply,SBD,M
Boys,90,2,Trace Gray,Lumberton,88.99,272.16,140.61,249.48,662.24,Single-ply,SBD,M
Boys,90,3,Jonathan Jones,Willis,88.27,240.4,145.15,258.55,644.1,Single-ply,SBD,M
Boys,90,4,Caleb Johnson,Lumberton,89.09,251.74,151.95,240.4,644.1,Single-ply,SBD,M
Boys,90,5,Demontre Bell,Texas City,87.09,235.87,127.01,272.16,635.03,Single-ply,SBD,M
Boys,90,6,Vincent Tran,Nederland,89.36,256.28,145.15,233.6,635.03,Single-ply,SBD,M
Boys,90,7,Tony Tapia,Conroe Woodlands College Park,87.82,247.21,149.69,213.19,610.08,Single-ply,SBD,M
Boys,90,8,Blake Shafer,Vidor,87.72,238.14,136.08,233.6,607.81,Single-ply,SBD,M
Boys,90,9,Uri Lujan,Conroe,88.27,249.48,124.74,229.06,603.28,Single-ply,SBD,M
Boys,90,10,Zane Gonzales,Pearland,89.72,244.94,136.08,204.12,585.13,Single-ply,SBD,M
Boys,90,11,Trevor Anderson,Dickinson,88.45,208.65,129.27,240.4,578.33,Single-ply,SBD,M
Boys,90,DQ,Grant Stuard,Conroe Oak Ridge,,,,,,Single-ply,SBD,M
Boys,90,DQ,Kyle Haynes,Livingston,,,,,,Single-ply,SBD,M
Boys,90,DQ,Ali Jumili,Conroe The Woodlands,88.09,219.99,136.08,,,Single-ply,SBD,M
Boys,100,1,Travis Anderson,Crosby,91.17,278.96,183.7,283.5,746.16,Single-ply,SBD,M
Boys,100,2,Roy Kelley,Conroe,93.89,317.51,145.15,267.62,730.28,Single-ply,SBD,M
Boys,100,3,David Caddie,Livingston,94.08,283.5,165.56,278.96,728.02,Single-ply,SBD,M
Boys,100,4,Joe Thomas,Beaumont Ozen,93.08,285.76,145.15,272.16,703.07,Single-ply,SBD,M
Boys,100,5,Brant Kobersky,Alvin,97.3,283.5,163.29,244.94,691.73,Single-ply,SBD,M
Boys,100,6,Kevin Nguyen #9,Friendswood Clear Brook,98.34,267.62,138.35,251.74,657.71,Single-ply,SBD,M
Boys,100,7,Tristan Anderson,Dickinson,98.07,249.48,127.01,244.94,621.42,Single-ply,SBD,M
Boys,100,8,Gavin Franklin,Conroe Oak Ridge,95.62,229.06,142.88,240.4,612.35,Single-ply,SBD,M
Boys,100,9,Jacob Fussell,Lumberton,97.98,258.55,131.54,222.26,612.35,Single-ply,SBD,M
Boys,100,10,Cole Wade,Magnolia West,94.44,240.4,142.88,226.8,610.08,Single-ply,SBD,M
Boys,100,11,Adrian Carter,Houston Madison,97.98,204.12,147.42,231.33,582.87,Single-ply,SBD,M
Boys,100,12,Nick Tucci,Katy Taylor,92.8,208.65,120.2,238.14,566.99,Single-ply,SBD,M
Boys,100,DQ,Fabian Luna,Pasadena Memorial,95.07,226.8,140.61,,,Single-ply,SBD,M
Boys,110,1,Kaylond North,Dickinson,108.95,349.27,213.19,294.84,857.29,Single-ply,SBD,M
Boys,110,2,Diundre Washington,Beaumont Ozen,108.14,283.5,183.7,226.8,694,Single-ply,SBD,M
Boys,110,3,Rene Troche-Baez,Conroe The Woodlands,105.23,272.16,138.35,274.42,684.92,Single-ply,SBD,M
Boys,110,4,Justin Knight,Lumberton,106.87,294.84,145.15,240.4,680.39,Single-ply,SBD,M
Boys,110,5,Derek Parish,Pearland,109.77,276.69,165.56,238.14,680.39,Single-ply,SBD,M
Boys,110,6,Jared Reedy,Dickinson,108.23,260.82,154.22,247.21,662.24,Single-ply,SBD,M
Boys,110,7,Cedric Duncan,Manvel,108.32,281.23,147.42,231.33,659.98,Single-ply,SBD,M
Boys,110,8,Hunter Madore,Conroe The Woodlands,106.41,249.48,163.29,242.67,655.44,Single-ply,SBD,M
Boys,110,9,Matthew Reed,Conroe Woodlands College Park,108.86,281.23,127.01,244.94,653.17,Single-ply,SBD,M
Boys,110,10,Dalton Poteet,Vidor,106.14,258.55,167.83,213.19,639.57,Single-ply,SBD,M
Boys,110,11,Marcus Garza,Conroe Caney Creek,107.59,244.94,147.42,233.6,625.96,Single-ply,SBD,M
Boys,110,DQ,D'Vonte Mills,Pasadena Memorial,,,,,,Single-ply,SBD,M
Boys,125,1,Anietie Etuk,Dickinson,120.75,317.51,197.31,294.84,809.66,Single-ply,SBD,M
Boys,125,2,Christian Bluiett,Beaumont West Brook,121.74,297.1,183.7,292.57,773.37,Single-ply,SBD,M
Boys,125,3,Chase Kellar,Conroe Caney Creek,122.29,317.51,183.7,272.16,773.37,Single-ply,SBD,M
Boys,125,4,Tyler Moran,Port Neches-Groves,122.65,278.96,226.8,247.21,752.96,Single-ply,SBD,M
Boys,125,5,Dante Hayes,Texas City,124.28,281.23,170.1,254.01,705.34,Single-ply,SBD,M
Boys,125,6,Corey Stang,Magnolia,113.85,283.5,163.29,256.28,703.07,Single-ply,SBD,M
Boys,125,7,Kyler Gentry,Santa Fe,123.6,281.23,174.63,247.21,703.07,Single-ply,SBD,M
Boys,125,8,Dwayne Robertson,Beaumont Central,123.56,274.42,158.76,235.87,669.05,Single-ply,SBD,M
Boys,125,9,Colby Thomas,Manvel,119.84,249.48,167.83,235.87,653.17,Single-ply,SBD,M
Boys,125,10,Gino Cortez,Pearland,121.02,260.82,149.69,240.4,650.91,Single-ply,SBD,M
Boys,125,11,Kainen Collins,Port Arthur Memorial,117.12,251.74,142.88,240.4,635.03,Single-ply,SBD,M
Boys,125,DQ,Hunter Crooks,Dayton,,,,,,Single-ply,SBD,M
Boys,125+,1,Chance Harmanson,Dickinson,147.87,342.46,217.72,285.76,845.95,Single-ply,SBD,M
Boys,125+,2,Terry Carter,Livingston,151.41,322.05,156.49,310.71,789.25,Single-ply,SBD,M
Boys,125+,3,Brandon Jackson,Port Arthur Memorial,131.9,322.05,176.9,285.76,784.71,Single-ply,SBD,M
Boys,125+,4,Terrance Manning,Dayton,148.78,331.12,190.51,249.48,771.11,Single-ply,SBD,M
Boys,125+,5,Chris Rogers,Katy Taylor,130.27,310.71,170.1,276.69,757.5,Single-ply,SBD,M
Boys,125+,6,Keenan Murphy,Crosby,135.9,283.5,174.63,267.62,725.75,Single-ply,SBD,M
Boys,125+,7,Bayden Pethtel,Texas City,131.09,281.23,183.7,219.99,684.92,Single-ply,SBD,M
Boys,125+,8,Joseph Sols,Magnolia,146.96,260.82,147.42,240.4,648.64,Single-ply,SBD,M
Boys,125+,9,Stephen Nevarez,Magnolia West,127.55,256.28,158.76,231.33,646.37,Single-ply,SBD,M
Boys,125+,10,Parker Corriea,Pearland Dawson,150.14,260.82,124.74,226.8,612.35,Single-ply,SBD,M
Boys,125+,DQ,Jimmy White,Willis,140.89,,,,,Single-ply,SBD,M
Boys,125+,DQ,Coy Combs,La Porte,127.01,249.48,136.08,,,Single-ply,SBD,M
