Place,Sex,Name,Event,Division,WeightClassKg,Equipment,Team,State,BodyweightKg,Squat1Kg,Squat2Kg,Squat3Kg,Best3SquatKg,Bench1Kg,Bench2Kg,Bench3Kg,Best3BenchKg,Deadlift1Kg,Deadlift2Kg,Deadlift3Kg,Best3DeadliftKg,TotalKg,BirthYear
3,M,Mitchell Gibson,SBD,M-T1,67.5,Single-ply,WI,WI,65.1,174.6,188.2,204.1,204.1,83.9,90.7,-93,90.7,179.2,,,179.2,474,1999
6,M,Austin Payne,SBD,M-T1,75,Single-ply,AF,WI,74.9,-165.6,165.6,-183.7,165.6,65.8,-83.9,83.9,83.9,165.6,183.7,-192.8,183.7,433.2,2000
8,M,Dylan Wysocky,SBD,M-T1,82.5,Single-ply,AF,WI,77.6,158.8,-172.4,-172.4,158.8,68,79.4,83.9,83.9,142.9,-176.9,-176.9,142.9,385.6,2001
1,M,Corey Prom,SBD,M-T1,90,Single-ply,WH,WI,89.4,165.6,183.7,192.8,192.8,113.4,-120.2,-120.2,113.4,183.7,204.1,-229.1,204.1,510.3,2000
5,M,Benjamin Zahn,SBD,M-T1,90,Single-ply,HO,WI,84.2,154.2,158.8,-163.3,158.8,-90.7,90.7,-95.3,90.7,172.4,181.4,188.2,188.2,437.7,2000
4,M,Dalton Gautsch,SBD,M-T1,100,Single-ply,HO,WI,98.5,158.8,165.6,,165.6,102.1,-106.6,106.6,106.6,170.1,186,-199.6,186,458.1,2000
7,M,Alex Ochs,SBD,M-T1,100,Single-ply,WA,WI,98.4,156.5,165.6,-172.4,165.6,86.2,90.7,93,93,172.4,-183.7,-183.7,172.4,430.9,2001
2,M,Nicholas Coca,SBD,M-T1,125,Single-ply,HO,WI,114.1,-181.4,-181.4,181.4,181.4,93,97.5,-99.8,97.5,195,206.4,-215.5,206.4,485.3,2000
2,M,Justin Rife,SBD,M-T2,52,Single-ply,OM,WI,51.7,-99.8,99.8,-108.9,99.8,52.2,56.7,-63.5,56.7,122.5,129.3,-140.6,129.3,285.8,2000
1,M,Kyle Thyssen,SBD,M-T2,56,Single-ply,WI,WI,54,129.3,-142.9,,129.3,56.7,61.2,63.5,63.5,149.7,165.6,-174.6,165.6,358.3,1998
6,M,Nick Piparo,SBD,M-T2,60,Single-ply,CU,WI,59.6,142.9,152,156.5,156.5,72.6,74.8,77.1,77.1,161,-172.4,179.2,179.2,412.8,1998
3,M,Kevin Witkowski,SBD,M-T2,67.5,Single-ply,WI,WI,65.5,-174.6,174.6,183.7,183.7,83.9,93,-97.5,93,197.3,,,197.3,474,1998
5,M,Zach Perry,SBD,M-T2,82.5,Single-ply,HO,WI,76.7,158.8,163.3,,163.3,86.2,88.5,-90.7,88.5,163.3,167.8,181.4,181.4,433.2,2000
4,M,Marcos Chavez Jr,SBD,M-T2,100,Single-ply,HO,WI,97.5,158.8,-165.6,170.1,170.1,-104.3,104.3,106.6,106.6,-165.6,165.6,188.2,188.2,464.9,1999
1,M,Austin Januchowski,SBD,M-T2,110,Single-ply,SM,WI,108.6,183.7,192.8,-206.4,192.8,102.1,106.6,-113.4,106.6,217.7,226.8,-235.9,226.8,526.2,1999
2,M,Michael Young,SBD,M-T2,110,Single-ply,RL,WI,105.3,170.1,176.9,183.7,183.7,106.6,111.1,-113.4,111.1,167.8,179.2,190.5,190.5,485.3,2000
3,M,Connor Downey,SBD,M-T3,67.5,Single-ply,AF,WI,66.1,149.7,-163.3,-163.3,149.7,-83.9,83.9,-88.5,83.9,197.3,-210.9,-210.9,197.3,430.9,1997
DQ,M,Drew Aron,SBD,M-T3,67.5,Single-ply,OM,WI,66.9,-190.5,-197.3,-197.3,,,,,,,,,,,1998
2,M,Brady Zink,SBD,M-T3,82.5,Single-ply,WI,WI,80.1,204.1,-215.5,-215.5,204.1,108.9,115.7,117.9,117.9,226.8,240.4,-244.9,240.4,562.5,1997
1,M,Kenny Thums,SBD,M-T3,110,Single-ply,OM,WI,104,247.2,-272.2,272.2,272.2,142.9,147.4,-156.5,147.4,-233.6,233.6,-242.7,233.6,653.2,1997
1,F,Sophia Terranova,SBD,FR-T3,75,Raw,SM,WI,73.2,102.1,115.7,124.7,124.7,52.2,65.8,70.3,70.3,93,115.7,-136.1,115.7,310.7,1998
2,F,Jordan Barnes,SBD,FR-T3,90+,Raw,SM,WI,93.7,102.1,111.1,-120.2,111.1,47.6,56.7,61.2,61.2,102.1,115.7,124.7,124.7,297.1,1998
6,F,Madeline Cieczka,SBD,F-T1,52,Single-ply,CU,WI,50.9,90.7,-102.1,102.1,102.1,29.5,31.8,36.3,36.3,90.7,108.9,-124.7,108.9,247.2,2000
1,F,Britney Kopp,SBD,F-T1,56,Single-ply,CU,WI,55.6,102.1,124.7,133.8,133.8,45.4,52.2,56.7,56.7,102.1,127,142.9,142.9,333.4,2001
9,F,Makenzie Vash,SBD,F-T1,60,Single-ply,HO,WI,59.8,72.6,77.1,81.7,81.7,36.3,45.4,49.9,49.9,77.1,86.2,-95.3,86.2,217.7,2000
10,F,Shyla Dake,SBD,F-T1,60,Single-ply,RL,WI,58.5,-117.9,-117.9,-117.9,,59,-63.5,-63.5,59,117.9,-124.7,-124.7,117.9,176.9,2000
3,F,Jenna Wieland,SBD,F-T1,67.5,Single-ply,OM,WI,63.7,102.1,-111.1,117.9,117.9,59,-63.5,-63.5,59,-108.9,-108.9,108.9,108.9,285.8,2000
7,F,Hailey Kisting,SBD,F-T1,75,Single-ply,HO,WI,71.5,90.7,95.3,,95.3,47.6,52.2,-54.4,52.2,90.7,97.5,-102.1,97.5,244.9,2001
2,F,Maleah Polzin,SBD,F-T1,82.5,Single-ply,SM,WI,81.1,102.1,111.1,115.7,115.7,-47.6,47.6,-49.9,47.6,111.1,120.2,129.3,129.3,292.6,2001
4,F,Olivia Kempfer,SBD,F-T1,82.5,Single-ply,MA,WI,79.9,81.7,93,-99.8,93,34,38.6,-43.1,38.6,95.3,111.1,124.7,124.7,256.3,2001
5,F,Shaye Winker,SBD,F-T1,82.5,Single-ply,MA,WI,81.7,88.5,99.8,-106.6,99.8,47.6,-52.2,-54.4,47.6,83.9,97.5,108.9,108.9,256.3,2000
8,F,Adrianna Huarota,SBD,F-T1,82.5,Single-ply,HO,WI,81.2,81.7,-90.7,-93,81.7,52.2,56.7,-61.2,56.7,86.2,-102.1,-102.1,86.2,224.5,2000
11,F,Faith Brooks,SBD,F-T1,90,Single-ply,OM,WI,83.6,-117.9,-117.9,117.9,117.9,-72.6,-72.6,-72.6,,117.9,127,131.5,131.5,249.5,2000
4,F,Briana Rife,SBD,F-T2,52,Single-ply,OM,WI,49.3,-83.9,86.2,90.7,90.7,-52.2,-54.4,-59,,104.3,113.4,-117.9,113.4,204.1,1999
2,F,Kendra Bartels,SBD,F-T2,56,Single-ply,NE,WI,54.7,108.9,-113.4,-113.4,108.9,45.4,-52.2,52.2,52.2,111.1,117.9,-124.7,117.9,279,1999
3,F,Alaina MaKutz,SBD,F-T2,75,Single-ply,HO,WI,70,93,97.5,102.1,102.1,54.4,-56.7,56.7,56.7,77.1,86.2,-95.3,86.2,244.9,2001
1,F,Amber Beardsley,SBD,F-T2,90+,Single-ply,HO,WI,94.8,113.4,122.5,127,127,70.3,77.1,-81.7,77.1,124.7,136.1,-147.4,136.1,340.2,1999
