Place,Name,Sex,Event,Division,WeightClassKg,Equipment,BirthYear,Team,State,BodyweightKg,Squat1Kg,Squat2Kg,Squat3Kg,Best3SquatKg,Bench1Kg,Bench2Kg,Bench3Kg,Best3BenchKg,Deadlift1Kg,Deadlift2Kg,Deadlift3Kg,Best3DeadliftKg,TotalKg,Age,BirthDate
1,Laurie Berarducci,F,SBD,O,57,Single-ply,1988,South Brooklyn Weightlifting Club,NY,56.25,-105,105,115,115,57.5,62.5,-65,62.5,105,115,125,125,302.5,,
1,Shelby Mathews,F,SBD,O,72,Single-ply,1992,South Brooklyn Weightlifting Club,NY,65,140,145,150,150,80,85,-90,85,132.5,137.5,-142.5,137.5,372.5,,
1,Autumn Garcia,F,SBD,O,84,Single-ply,1982,South Brooklyn Weightlifting Club,NY,76.5,-130,130,-135,130,85,90,-92.5,90,120,125,137.5,137.5,357.5,,
DQ,Sara Greene,F,SBD,O,84,Single-ply,1986,South Brooklyn Weightlifting Club,NY,82.95,155,160,165,165,-77.5,-77.5,-77.5,,125,132.5,140,140,,,
1,Michelle Grapel,F,SBD,O,84+,Single-ply,1981,South Brooklyn Weightlifting Club,NY,103.9,160,170,175,175,80,87.5,-95,87.5,125,135,150,150,412.5,,
1,Kelsey McCarthy,F,SBD,R-O,72,Raw,1992,,MA,70.5,165,175,185,185,90,-95,-95,90,185,195,205,205,480,,
1,Monet Bland,F,SBD,R-O,84+,Raw,1991,South Brooklyn Weightlifting Club,MA,85.5,155,162.5,170,170,95,100,-105,100,195,207.5,217.5,217.5,487.5,,
1,Jesse Brizzi,M,SBD,O,83,Single-ply,1991,South Brooklyn Weightlifting Club,NY,80.5,180,190,-200,190,125,135,140,140,200,210,220,220,550,,
1,Bill Clayton,M,SBD,R-O,74,Raw,1953,,NJ,73.6,147.5,-152.5,-152.5,147.5,75,-80,-80,75,177.5,-185,-185,177.5,400,,
