Name,Age,Division,WeightClassKg,BodyweightKg,Squat1Kg,Squat2Kg,Squat3Kg,Best3SquatKg,Bench1Kg,Bench2Kg,Bench3Kg,Best3BenchKg,Deadlift1Kg,Deadlift2Kg,Deadlift3Kg,Best3DeadliftKg,TotalKg,Event,Sex,Equipment,Place
Jason Wyman,29,MR-O,93,85,135,142.5,150,150,65,75,80,80,165,175,182.5,182.5,412.5,SBD,M,Raw,8
Trevor Giampaoli,20,MR-Jr,93,85.5,120,130,135,135,-95,-102.5,102.5,102.5,165,175,182.5,182.5,420,SBD,M,Raw,2
Mark Micire,42,MR-M1a,93,90.8,135,147.5,157.5,157.5,85,95,102.5,102.5,160,175,185,185,445,SBD,M,Raw,2
Erik Zarazua,28,MR-O,93,92,135,145,150,150,92.5,-100,102.5,102.5,170,185,192.5,192.5,445,SBD,M,Raw,7
Jeremy Jaramillo,23,MR-Jr,105,101.4,142.5,165,182.5,182.5,102.5,-125,-125,102.5,182.5,-207.5,207.5,207.5,492.5,SBD,M,Raw,1
Brandon Rullamas,24,MR-O,93,90.7,165,182.5,-190,182.5,115,125,127.5,127.5,190,205,215,215,525,SBD,M,Raw,6
Leon Lakhani,15,MR-T1,93,91.1,150,165,172.5,172.5,90,-100,-100,90,190,215,220,220,482.5,SBD,M,Raw,1
Josh Bader,28,MR-O,93,91.6,172.5,182.5,190,190,110,117.5,122.5,122.5,-215,215,-222.5,215,527.5,SBD,M,Raw,5
Eric Santiago,24,MR-O,105,100.6,230,242.5,252.5,252.5,145,152.5,160,160,215,222.5,230,230,642.5,SBD,M,Raw,2
Scott Maher,32,MR-O,93,92.1,175,187.5,192.5,192.5,130,137.5,145,145,217.5,227.5,235,235,572.5,SBD,M,Raw,3
Joshua Reiten,41,MR-M1a,93,92.8,180,190,-200,190,120,130,-135,130,220,235,242.5,242.5,562.5,SBD,M,Raw,1
Benjamin Harvey,28,MR-O,93,91.2,175,185,192.5,192.5,145,150,-157.5,150,245,260,-272.5,260,602.5,SBD,M,Raw,2
David Blonski,33,MR-O,93,91.6,220,235,242.5,242.5,130,140,145,145,295,315,322.5,322.5,710,SBD,M,Raw,1
Brian Gage,33,MR-O,93,92.1,220,-225,-225,220,-160,-160,,,,,,,,SBD,M,Raw,DQ
Jane Ho,26,FR-O,63,61.2,90,97.5,102.5,102.5,50,55,-60,55,102.5,115,-122.5,115,272.5,SBD,F,Raw,2
Cookie Apichairuk,41,FR-M1a,63,62.1,80,87.5,92.5,92.5,60,65,-70,65,110,117.5,125,125,282.5,SBD,F,Raw,1
Shirley Ho,25,FR-O,57,56,107.5,115,122.5,122.5,45,50,-55,50,112.5,120,130,130,302.5,SBD,F,Raw,1
Michelle Guerrero,23,FR-Jr,57,54.7,97.5,102.5,105,105,52.5,55,57.5,57.5,112.5,125,135,135,297.5,SBD,F,Raw,2
Ekaterina Taralova,34,FR-O,52,51.5,80,87.5,-92.5,87.5,57.5,60,-62.5,60,115,120,125,125,272.5,SBD,F,Raw,2
Helen Lau,29,FR-O,52,49.5,105,112.5,117.5,117.5,62.5,65,67.5,67.5,125,130,-132.5,130,315,SBD,F,Raw,1
Rachael Johnson,22,FR-Jr,63,62.6,92.5,97.5,-102.5,97.5,60,62.5,65,65,135,142.5,-147.5,142.5,305,SBD,F,Raw,1
Charisse Surio,23,FR-Jr,57,56.7,117.5,125,-130,125,60,65,70,70,135,142.5,150,150,345,SBD,F,Raw,1
Michelle Lin,28,FR-O,63,60.3,125,132.5,135,135,82.5,87.5,92.5,92.5,142.5,152.5,160,160,387.5,SBD,F,Raw,1
Jake Suba,20,MR-O,74,73.2,102.5,115,130,130,65,-80,-80,65,140,150,160,160,355,SBD,M,Raw,5
Brandon Martinez,19,MR-T3,74,67.2,125,132.5,140,140,90,95,100,100,147.5,157.5,-165,157.5,397.5,SBD,M,Raw,2
Elam Day-Friedland,15,MR-O,74,73.4,105,-117.5,127.5,127.5,-92.5,-95,97.5,97.5,152.5,160,167.5,167.5,392.5,SBD,M,Raw,4
Ronald Roa,25,MR-O,66,61.8,130,137.5,-147.5,137.5,-85,87.5,95,95,157.5,165,-177.5,165,397.5,SBD,M,Raw,1
Dan Moung,19,MR-T3,66,64.2,127.5,135,-142.5,135,80,87.5,-90,87.5,165,-175,175,175,397.5,SBD,M,Raw,1
Jeffery Wu,23,MR-Jr,83,77.9,142.5,150,157.5,157.5,102.5,110,-112.5,110,175,185,192.5,192.5,460,SBD,M,Raw,2
Joseph Garcia,20,MR-Jr,74,73.8,160,172.5,-182.5,172.5,-92.5,92.5,,92.5,175,185,195,195,460,SBD,M,Raw,1
Daniel Ngo,25,MR-O,74,70.3,135,142.5,145,145,100,107.5,-112.5,107.5,182.5,192.5,202.5,202.5,455,SBD,M,Raw,3
Erik Bentley,18,MR-T3,74,71.9,150,-165,-165,150,95,102.5,-110,102.5,185,202.5,210,210,462.5,SBD,M,Raw,1
Maxwel Ruppert,17,MR-T2,74,73.7,157.5,165,175,175,92.5,-95,,92.5,200,-215,-215,200,467.5,SBD,M,Raw,1
Dallas White,32,MR-O,74,72.8,167.5,177.5,-187.5,177.5,107.5,115,-117.5,115,205,217.5,-232.5,217.5,510,SBD,M,Raw,2
Richard Maloney,27,MR-O,74,70.7,197.5,-205,-205,197.5,127.5,-135,-135,127.5,-230,-230,-230,,,SBD,M,Raw,DQ
Isaiah Gayles,24,MR-O,74,73.6,,,,,,,,,242.5,260,-281,260,260,D,M,Raw,1
Isaiah Gayles,24,MR-O,74,73.6,177.5,192.5,200,200,110,-127.5,-127.5,110,242.5,260,-281,260,570,SBD,M,Raw,1
Jake Suba,20,MR-Jr,74,73.2,102.5,115,130,130,65,-80,-80,65,140,150,160,160,355,SBD,M,Raw,2
Elam Day-Friedland,15,MR-T1,74,73.4,105,-117.5,127.5,127.5,-92.5,-95,97.5,97.5,152.5,160,167.5,167.5,392.5,SBD,M,Raw,1
Paul Bohm,34,MR-O,93,91.9,80,90,100,100,75,80,-82.5,80,120,135,152.5,152.5,332.5,SBD,M,Raw,9
Steven Cutting,27,MR-O,120,110.9,165,170,177.5,177.5,95,102.5,-105,102.5,170,175,182.5,182.5,462.5,SBD,M,Raw,5
Anthony Peterson,43,MR-M1a,105,103.3,-155,155,167.5,167.5,117.5,125,132.5,132.5,187.5,200,-210,200,500,SBD,M,Raw,1
Jack Van Dine,16,MR-T2,105,104.2,175,-182.5,-182.5,175,120,125,-127.5,125,222.5,227.5,-230,227.5,527.5,SBD,M,Raw,1
Nick Kucharski,31,MR-O,105,99.6,165,175,185,185,115,125,-135,125,197.5,225,-237.5,225,535,SBD,M,Raw,3
Jeffrey Fletcher,56,MR-M2b,83,82.1,175,185,192.5,192.5,-110,-110,,,225,-240,-240,225,,SBD,M,Raw,DQ
Jeff Robbins,29,MR-O,120,111.3,165,180,195,195,117.5,-127.5,,117.5,210,240,250,250,562.5,SBD,M,Raw,4
Prince Williams,40,MR-O,120+,128.6,-225,225,-237.5,225,-160,160,172.5,172.5,227.5,250,265,265,662.5,SBD,M,Raw,1
Davy Capriles,19,MR-O,120,119.6,240,-255,255,255,190,-200,-200,190,250,260,272.5,272.5,717.5,SBD,M,Raw,2
Joseph Park,33,MR-O,120,113.6,220,-240,240,240,135,147.5,-152.5,147.5,245,270,-282.5,270,657.5,SBD,M,Raw,3
Tony Popovich,25,MR-O,105,101.9,-235,-235,235,235,-145,145,155,155,270,-285,-285,270,660,SBD,M,Raw,1
Dawson Hall,23,MR-O,120,118.9,237.5,250,260,260,157.5,165,172.5,172.5,280,292.5,300,300,732.5,SBD,M,Raw,1
Steven O'Brien,69,MR-M3b,93,88.5,,,,,-125,-125,125,125,,,,,125,B,M,Raw,1
Davy Capriles,19,MR-T3,120,119.6,240,-255,255,255,190,-200,-200,190,250,260,272.5,272.5,717.5,SBD,M,Raw,1
Davy Capriles,19,MR-O,120,119.6,,,,,190,-200,-200,190,,,,,190,B,M,Raw,1
Davy Capriles,19,MR-T3,120,119.6,,,,,190,-200,-200,190,,,,,190,B,M,Raw,1
Dawson Hall,23,MR-Jr,120,118.9,237.5,250,260,260,157.5,165,172.5,172.5,280,292.5,300,300,732.5,SBD,M,Raw,1
Madeleine Lux,31,FR-O,72,69.9,65,75,-80,75,-30,32.5,-37.5,32.5,80,87.5,92.5,92.5,200,SBD,F,Raw,3
Jazmine Garcia,26,FR-O,84+,88,97.5,105,112.5,112.5,32.5,40,47.5,47.5,110,117.5,127.5,127.5,287.5,SBD,F,Raw,2
Deborah Stern,68,FR-M3b,47,47,55,60,-65,60,37.5,40,-41.5,40,70,80,-90,80,180,SBD,F,Raw,1
Yvette Finau,26,FR-O,84+,86.1,-102.5,102.5,125,125,-47.5,60,-62.5,60,125,132.5,137.5,137.5,322.5,SBD,F,Raw,1
C.J. Silverio,52,FR-M2a,84+,107.7,90,-97.5,97.5,97.5,52.5,55,57.5,57.5,115,122.5,132.5,132.5,287.5,SBD,F,Raw,1
Vanessa Mendoza,23,FR-Jr,72,70.9,115,122.5,132.5,132.5,52.5,60,-62.5,60,130,145,150,150,342.5,SBD,F,Raw,1
Holly Baxter,29,FR-O,72,67.1,112.5,122.5,-127.5,122.5,65,70,-72.5,70,122.5,130,137.5,137.5,330,SBD,F,Raw,2
Sarah Wellberg,30,FR-O,72,66.4,120,127.5,-130,127.5,-67.5,67.5,70,70,140,145,147.5,147.5,345,SBD,F,Raw,1
Marvin Dela Rea-Eribe,16,MR-T2,93,87.6,172.5,177.5,-182.5,177.5,90,95,100,100,180,187.5,-195,187.5,465,SBD,M,Raw,1
Mitchell Squires,27,MR-O,83,78.5,142.5,152.5,160,160,95,102.5,107.5,107.5,185,197.5,210,210,477.5,SBD,M,Raw,7
Uche Megwalu,36,MR-O,83,81.1,142.5,157.5,167.5,167.5,95,105,-110,105,187.5,202.5,210,210,482.5,SBD,M,Raw,6
Ojas Mhetar,23,MR-O,83,79.2,152.5,162.5,172.5,172.5,-95,97.5,105,105,195,-207.5,-207.5,195,472.5,SBD,M,Raw,8
Joseph Maurer,18,MR-T3,83,78.6,155,160,,160,100,105,-107.5,105,182.5,195,,195,460,SBD,M,Raw,1
Alec Quinones,22,MR-Jr,93,88.7,170,180,190,190,105,112.5,120,120,185,197.5,207.5,207.5,517.5,SBD,M,Raw,1
Colin Baroy,22,MR-Jr,83,80.4,190,197.5,207.5,207.5,105,110,115,115,207.5,220,230,230,552.5,SBD,M,Raw,1
Larry Ronquilo,27,MR-O,83,82.4,185,200,-210,200,-110,115,125,125,205,217.5,-230,217.5,542.5,SBD,M,Raw,3
Charles Tsang,36,MR-O,93,92.1,-190,190,205,205,117.5,125,-130,125,230,242.5,-255,242.5,572.5,SBD,M,Raw,4
Bryan Wong,27,MR-O,83,80.6,167.5,175,-180,175,120,-127.5,-127.5,120,192.5,202.5,212.5,212.5,507.5,SBD,M,Raw,4
Lucas Dunham,26,MR-O,83,80.9,195,205,-215,205,120,127.5,-135,127.5,225,237.5,-245,237.5,570,SBD,M,Raw,2
Nathaniel Higgins,38,MR-O,83,82.3,-167.5,-170,170,170,130,137.5,-145,137.5,182.5,192.5,200,200,507.5,SBD,M,Raw,5
Duy Tran #1,29,MR-O,83,81.3,220,230,237.5,237.5,140,147.5,152.5,152.5,245,257.5,-267.5,257.5,647.5,SBD,M,Raw,1
