Division,WeightClassKg,Place,Name,Team,BodyweightKg,Best3SquatKg,Best3BenchKg,Best3DeadliftKg,TotalKg,Equipment,Event,Sex
Boys,52,1,Corbin Strain,Pattonville Prairiland,49.9,102.06,61.23,92.99,256.28,Single-ply,SBD,M
Boys,52,2,Keldon May,Pattonville Prairiland,50.35,79.38,56.7,97.52,233.6,Single-ply,SBD,M
Boys,52,3,Jackson Anderson,Cooper,50.8,86.18,52.16,95.25,233.6,Single-ply,SBD,M
Boys,56,1,Preston Booker,Honey Grove,53.07,115.67,65.77,131.54,312.98,Single-ply,SBD,M
Boys,56,2,Caleb Ashley,Paris Chisum,53.98,106.59,65.77,115.67,288.03,Single-ply,SBD,M
Boys,56,3,Colby Connelly,Honey Grove,54.43,92.99,56.7,113.4,263.08,Single-ply,SBD,M
Boys,60,1,Jason Jackson,De Kalb,58.97,138.35,77.11,156.49,371.95,Single-ply,SBD,M
Boys,60,2,Aaron Nelson,Honey Grove,58.97,133.81,77.11,158.76,369.68,Single-ply,SBD,M
Boys,60,3,Trey Corbett,Honey Grove,58.97,120.2,52.16,145.15,317.51,Single-ply,SBD,M
Boys,60,4,Collin McGuire,Cooper,59.87,104.33,88.45,117.93,310.71,Single-ply,SBD,M
Boys,60,5,Cesar Leija,Bogata Rivercrest,56.7,102.06,74.84,131.54,308.44,Single-ply,SBD,M
Boys,60,6,Ryan Graham,Paris Chisum,59.42,88.45,56.7,115.67,260.82,Single-ply,SBD,M
Boys,67.5,1,Dakota Vanderburg,Paris Chisum,66.68,179.17,102.06,172.37,453.59,Single-ply,SBD,M
Boys,67.5,2,Brian Wilson,Paris Chisum,65.32,142.88,79.38,158.76,381.02,Single-ply,SBD,M
Boys,67.5,3,Sterling Rogers,Detroit,67.13,136.08,90.72,151.95,378.75,Single-ply,SBD,M
Boys,67.5,4,Caleb Hamm,Detroit,64.86,129.27,92.99,142.88,365.14,Single-ply,SBD,M
Boys,67.5,5,Rayce Briscoe,Paris Chisum,65.77,124.74,72.57,145.15,342.46,Single-ply,SBD,M
Boys,67.5,6,Charles Akins,Simms Bowie,65.77,133.81,72.57,136.08,342.46,Single-ply,SBD,M
Boys,67.5,7,Landon Crawford,Simms Bowie,63.05,131.54,70.31,136.08,337.93,Single-ply,SBD,M
Boys,67.5,8,Logan Smith,De Kalb,64.86,120.2,72.57,142.88,335.66,Single-ply,SBD,M
Boys,67.5,9,Dylan McElroy,Honey Grove,61.23,122.47,70.31,133.81,326.59,Single-ply,SBD,M
Boys,67.5,10,James Smith,Bogata Rivercrest,67.13,149.69,,163.29,312.98,Single-ply,SD,M
Boys,67.5,11,Dustin Brown,Detroit,67.13,97.52,68.04,113.4,278.96,Single-ply,SBD,M
Boys,67.5,12,Seth Brower,Maud,64.86,108.86,52.16,115.67,276.69,Single-ply,SBD,M
Boys,67.5,13,Cole Hinson,Detroit,66.77,124.74,,147.42,272.16,Single-ply,SD,M
Boys,67.5,14,Braden Grider,New Boston,60.33,102.06,56.7,106.59,265.35,Single-ply,SBD,M
Boys,75,1,John Wims,Detroit,74.84,181.44,127.01,181.44,489.88,Single-ply,SBD,M
Boys,75,2,Michael Fisher,Simms Bowie,68.04,147.42,111.13,204.12,462.66,Single-ply,SBD,M
Boys,75,3,Joseph Moore,Cooper,71.21,161.03,88.45,147.42,396.89,Single-ply,SBD,M
Boys,75,4,Garrett Hawkins,Paris Chisum,72.12,142.88,99.79,149.69,392.36,Single-ply,SBD,M
Boys,75,5,Lee Armstrong,Paris Chisum,68.95,138.35,79.38,156.49,374.21,Single-ply,SBD,M
Boys,75,6,Myles Knudsen,Honey Grove,67.31,142.88,70.31,156.49,369.68,Single-ply,SBD,M
Boys,75,7,Trevor Lolies,Maud,71.67,147.42,77.11,136.08,360.61,Single-ply,SBD,M
Boys,75,8,Carl Traylor,De Kalb,68.95,122.47,88.45,138.35,349.27,Single-ply,SBD,M
Boys,75,9,Dakota Grant,Simms Bowie,72.12,151.95,,188.24,340.19,Single-ply,SD,M
Boys,75,10,Clayton Brookes,New Boston,69.85,113.4,65.77,149.69,328.85,Single-ply,SBD,M
Boys,75,11,Hayden Kelley,Paris Chisum,73.03,108.86,70.31,145.15,324.32,Single-ply,SBD,M
Boys,75,12,Micah Sheridan,New Boston,73.94,127.01,63.5,127.01,317.51,Single-ply,SBD,M
Boys,75,13,Imanol Gamez,Honey Grove,71.67,115.67,58.97,131.54,306.17,Single-ply,SBD,M
Boys,75,14,Kenny Campbell,Honey Grove,68.04,97.52,63.5,124.74,285.76,Single-ply,SBD,M
Boys,75,15,Brock Braley,Honey Grove,72.12,111.13,56.7,117.93,285.76,Single-ply,SBD,M
Boys,75,16,Dakota Smith,Detroit,71.58,131.54,,117.93,249.48,Single-ply,SD,M
Boys,75,17,Ethan Lum,Simms Bowie,73.48,86.18,52.16,104.33,242.67,Single-ply,SBD,M
Boys,82.5,1,Calvin Corbett,Honey Grove,77.11,174.63,92.99,215.46,483.08,Single-ply,SBD,M
Boys,82.5,2,Trent Graham,New Boston,76.66,165.56,88.45,161.03,415.04,Single-ply,SBD,M
Boys,82.5,3,Markus Berry,Maud,78.02,147.42,92.99,154.22,394.63,Single-ply,SBD,M
Boys,82.5,4,Sam Cunningham,Pattonville Prairiland,79.83,170.1,,192.78,362.87,Single-ply,SD,M
Boys,82.5,5,Zach Hooper,Simms Bowie,82.1,117.93,63.5,156.49,337.93,Single-ply,SBD,M
Boys,82.5,6,Taylor Knickerbocker,Cooper,78.93,156.49,,147.42,303.91,Single-ply,SD,M
Boys,82.5,7,Drake Wooten,Honey Grove,77.56,108.86,70.31,120.2,299.37,Single-ply,SBD,M
Boys,82.5,DQ,Reese Jessee,Bogata Rivercrest,82.1,,,,,Single-ply,SBD,M
Boys,90,1,Morgan Landreth,Pattonville Prairiland,89.81,226.8,138.35,204.12,569.26,Single-ply,SBD,M
Boys,90,2,Kobi Fort,Detroit,88.72,197.31,145.15,204.12,546.58,Single-ply,SBD,M
Boys,90,3,Stancio Battles,New Boston,88.9,183.7,102.06,210.92,496.68,Single-ply,SBD,M
Boys,90,4,Austin Mesick,Pattonville Prairiland,85.73,161.03,102.06,190.51,453.59,Single-ply,SBD,M
Boys,90,5,Grant Chalaire,Paris Chisum,86.18,161.03,106.59,185.97,453.59,Single-ply,SBD,M
Boys,90,6,Andrew Murphy #3,Paris Chisum,86.18,158.76,99.79,174.63,433.18,Single-ply,SBD,M
Boys,90,7,David Gamez,Honey Grove,85.28,156.49,95.25,151.95,403.7,Single-ply,SBD,M
Boys,90,8,Cameron Norwood,Honey Grove,87.54,124.74,77.11,117.93,319.78,Single-ply,SBD,M
Boys,90,9,Danny Banker,Honey Grove,83.46,92.99,,115.67,208.65,Single-ply,SD,M
Boys,100,1,Kentavius Williams,De Kalb,93.89,226.8,136.08,219.99,582.87,Single-ply,SBD,M
Boys,100,2,David Kizer,De Kalb,96.16,210.92,99.79,195.04,505.76,Single-ply,SBD,M
Boys,100,3,Garrison McKinnie,De Kalb,95.25,190.51,113.4,183.7,487.61,Single-ply,SBD,M
Boys,100,4,Dakota Kizer,De Kalb,96.62,170.1,97.52,172.37,439.98,Single-ply,SBD,M
Boys,100,5,Taylor Juarez-Conner,Honey Grove,95.71,181.44,88.45,167.83,437.72,Single-ply,SBD,M
Boys,100,6,Trent Croke,Detroit,98.88,149.69,90.72,197.31,437.72,Single-ply,SBD,M
Boys,100,7,Hunter Smith,Pattonville Prairiland,90.72,151.95,92.99,165.56,410.5,Single-ply,SBD,M
Boys,100,8,Roberto Vasquez,Honey Grove,91.63,142.88,74.84,156.49,374.21,Single-ply,SBD,M
Boys,100,9,Denver Hilliard,Cooper,91.63,138.35,92.99,142.88,374.21,Single-ply,SBD,M
Boys,100,10,Jamar Person,Honey Grove,96.62,120.2,74.84,158.76,353.8,Single-ply,SBD,M
Boys,100,11,Connor Humphry,Maud,94.35,129.27,68.04,124.74,322.05,Single-ply,SBD,M
Boys,100,12,Kyler Scott,Detroit,94.17,90.72,45.36,102.06,238.14,Single-ply,SBD,M
Boys,100,DQ,Bailey Hill,Simms Bowie,97.52,133.81,,,,Single-ply,SBD,M
Boys,110,1,Tyler Watts,Simms Bowie,108.41,213.19,129.27,213.19,555.65,Single-ply,SBD,M
Boys,110,2,James Berry,Maud,109.77,226.8,136.08,192.78,555.65,Single-ply,SBD,M
Boys,110,3,Ian Stewart,Simms Bowie,107.95,163.29,92.99,172.37,428.64,Single-ply,SBD,M
Boys,110,4,Aaron Hill,New Boston,103.87,151.95,81.65,176.9,410.5,Single-ply,SBD,M
Boys,110,5,Victor Esparza,Honey Grove,104.78,138.35,83.91,151.95,374.21,Single-ply,SBD,M
Boys,110,6,Aaron Strom,New Boston,103.87,136.08,70.31,136.08,342.46,Single-ply,SBD,M
Boys,110,7,Chance Sprague,Maud,105.69,131.54,72.57,124.74,328.85,Single-ply,SBD,M
Boys,125,1,Lucas Stephenson,Simms Bowie,122.47,215.46,108.86,215.46,539.77,Single-ply,SBD,M
Boys,125,2,Zach Hilton,Maud,112.04,158.76,102.06,226.8,487.61,Single-ply,SBD,M
Boys,125,3,Adam Aldridge,Honey Grove,119.29,165.56,95.25,174.63,435.45,Single-ply,SBD,M
Boys,125,4,Cortland Haskins,New Boston,113.85,151.95,81.65,181.44,415.04,Single-ply,SBD,M
Boys,125,5,Brandon Bower,New Boston,124.28,136.08,83.91,149.69,369.68,Single-ply,SBD,M
Boys,125+,1,Victor Sanchez,New Boston,136.08,219.99,117.93,188.24,526.17,Single-ply,SBD,M
Boys,125+,2,Ethan Price,Honey Grove,149.69,199.58,102.06,197.31,498.95,Single-ply,SBD,M
Boys,125+,3,Brandon Meadows,Simms Bowie,130.63,174.63,120.2,179.17,474,Single-ply,SBD,M
Boys,125+,4,Ceincerre Whidbee,New Boston,134.26,158.76,92.99,167.83,419.57,Single-ply,SBD,M
Boys,125+,5,Gabe Acosta,Maud,137.89,147.42,74.84,136.08,358.34,Single-ply,SBD,M
